<?xml version="1.0" standalone="no"?>
<!DOCTYPE svg PUBLIC "-//W3C//DTD SVG 1.1//EN" "http://www.w3.org/Graphics/SVG/1.1/DTD/svg11.dtd" >
<svg xmlns="http://www.w3.org/2000/svg" xmlns:xlink="http://www.w3.org/1999/xlink" version="1.1">
<metadata>
Created by FontForge 20150824 at Wed Dec 30 00:32:01 2015
 By Everything Fonts
Copyright (c) 1988, 1990 Adobe Systems Incorporated.  All Rights Reserved.Helvetica is a registered trademark of Linotype AG and/or its subsidiaries.
</metadata>
<defs>
<font id="HelveticaNeueUltraLight" horiz-adv-x="500" >
  <font-face 
    font-family="HelveticaNeueUltraLight"
    font-weight="300"
    font-stretch="normal"
    units-per-em="1000"
    panose-1="0 0 0 0 0 0 0 0 0 0"
    ascent="800"
    descent="-200"
    x-height="514"
    cap-height="714"
    bbox="-166 -189 1016 931"
    underline-thickness="50"
    underline-position="-150"
    unicode-range="U+0020-FB02"
  />
<missing-glyph horiz-adv-x="278" 
 />
    <glyph glyph-name=".notdef" horiz-adv-x="278" 
 />
    <glyph glyph-name=".null" horiz-adv-x="0" 
 />
    <glyph glyph-name="nonmarkingreturn" horiz-adv-x="333" 
 />
    <glyph glyph-name="space" unicode=" " horiz-adv-x="278" 
 />
    <glyph glyph-name="exclam" unicode="!" horiz-adv-x="185" 
d="M103 0h-20v98h20v-98zM103 182h-20v532h20v-532z" />
    <glyph glyph-name="quotedbl" unicode="&#x22;" horiz-adv-x="278" 
d="M93 714v-225h-20v225h20zM205 714v-225h-20v225h20z" />
    <glyph glyph-name="numbersign" unicode="#" horiz-adv-x="556" 
d="M225 680h20l-31 -234h171l31 234h20l-31 -234h116v-20h-121l-24 -177h117v-20h-121l-31 -229h-20l31 229h-172l-31 -229h-20l31 229h-125v20h130l24 177h-126v20h131zM209 426l-24 -177h171l24 177h-171z" />
    <glyph glyph-name="dollar" unicode="$" horiz-adv-x="556" 
d="M265 381v330q-56 -1 -102 -14.5t-81 -52t-35 -97.5q0 -25 7 -45.5t16 -35t28 -27t33 -20t42.5 -15.5t43.5 -12t48 -11zM6 237h20q0 -225 239 -233v356q-113 26 -153 46q-85 44 -85 141q0 50 21 87t56.5 57.5t75.5 30t85 9.5v43h20v-44q228 -5 238 -216h-20
q-7 191 -218 196v-334l8 -2q10 -2 28 -7q34 -9 50.5 -13.5t44.5 -13.5t41.5 -17.5t31.5 -23t26.5 -31.5t15 -40.5t6.5 -52.5q0 -94 -75 -143t-177 -49v-88h-20v89q-121 5 -191 67.5t-68 185.5zM285 355v-352q94 0 163 43.5t69 129.5q0 20 -4.5 37.5t-9 31t-17 25.5t-20 20
t-26.5 17t-27 13t-32 11t-30.5 8.5t-34 8t-31.5 7.5z" />
    <glyph glyph-name="percent" unicode="%" horiz-adv-x="685" 
d="M377 157q0 -64 34 -106.5t98 -42.5t99.5 43t35.5 106q0 71 -34 112t-101 41q-66 0 -99 -41.5t-33 -111.5zM21 519q0 77 40.5 125t111.5 48q74 0 114.5 -47.5t40.5 -124.5q0 -72 -41.5 -121t-113.5 -49q-74 0 -113 49t-39 120zM41 519q0 -64 34 -106.5t98 -42.5t99.5 43
t35.5 106q0 71 -34 112t-101 41q-66 0 -99 -41.5t-33 -111.5zM357 157q0 77 40.5 125t111.5 48q74 0 114.5 -47.5t40.5 -124.5q0 -72 -41.5 -121t-113.5 -49q-74 0 -113 49t-39 120zM88 -34l476 748h23l-476 -748h-23z" />
    <glyph glyph-name="ampersand" unicode="&#x26;" horiz-adv-x="574" 
d="M150 583q0 -32 20.5 -65.5t82.5 -113.5q2 1 20 13t22.5 15.5t21 15.5t22.5 18.5t19 19t18.5 22t13 22t10 25.5t2.5 26q0 51 -36.5 82t-88.5 31q-54 0 -90.5 -30t-36.5 -81zM444 132l-196 246q-1 -1 -24 -15.5t-26.5 -16.5t-24 -16t-25.5 -19t-21.5 -19t-21.5 -22.5
t-16 -23t-14.5 -26.5t-7 -28t-3.5 -32q0 -73 55 -115t129 -42q132 0 196 129zM467 133l105 -133h-26l-89 113q-71 -130 -209 -130q-80 0 -142 49t-62 128q0 33 13 64.5t28.5 52t47.5 46t49.5 37t53.5 34.5q-9 12 -32 42t-36.5 48.5t-25.5 46t-12 50.5q0 64 43.5 98.5
t102.5 34.5q62 0 104 -36t42 -97q0 -23 -8 -44.5t-17.5 -36t-29.5 -33t-31.5 -27.5t-37 -27t-33.5 -24l188 -238q27 59 24 126h20q1 -74 -30 -144z" />
    <glyph glyph-name="quotesingle" unicode="'" horiz-adv-x="167" 
d="M74 489v225h20v-225h-20z" />
    <glyph glyph-name="parenleft" unicode="(" horiz-adv-x="222" 
d="M184 731h20q-116 -215 -116 -449q0 -246 117 -459h-20q-60 117 -88.5 225t-28.5 234q0 234 116 449z" />
    <glyph glyph-name="parenright" unicode=")" horiz-adv-x="222" 
d="M38 -177h-20q116 215 116 449q0 246 -117 459h20q60 -117 88.5 -225t28.5 -234q0 -234 -116 -449z" />
    <glyph glyph-name="asterisk" unicode="*" horiz-adv-x="352" 
d="M164 714h20v-140l132 43l4 -19l-130 -43l83 -109l-16 -12l-83 108l-84 -104l-16 13l88 104l-130 43l6 19l126 -43v140z" />
    <glyph glyph-name="plus" unicode="+" horiz-adv-x="600" 
d="M290 263v243h20v-243h242v-20h-242v-243h-20v243h-242v20h242z" />
    <glyph glyph-name="comma" unicode="," horiz-adv-x="278" 
d="M129 98h20v-98q0 -88 -44 -119v20q24 24 24 99v98z" />
    <glyph glyph-name="hyphen" unicode="-" horiz-adv-x="333" 
d="M79 258v20h175v-20h-175z" />
    <glyph glyph-name="period" unicode="." horiz-adv-x="278" 
d="M149 98v-98h-20v98h20z" />
    <glyph glyph-name="slash" unicode="/" horiz-adv-x="333" 
d="M13 -17h-20l327 748h20z" />
    <glyph glyph-name="zero" unicode="0" horiz-adv-x="556" 
d="M515 340q0 62 -11.5 116.5t-37 105t-74 80.5t-114.5 30t-114.5 -30t-74 -80.5t-37 -105t-11.5 -116.5t11.5 -116.5t37 -105t74 -80.5t114.5 -30t114.5 30t74 80.5t37 105t11.5 116.5zM535 340q0 -68 -13.5 -127.5t-41.5 -111.5t-80 -82.5t-122 -30.5t-122 30.5t-80 82.5
t-41.5 111.5t-13.5 127.5t13.5 127.5t41.5 111.5t80 82.5t122 30.5t122 -30.5t80 -82.5t41.5 -111.5t13.5 -127.5z" />
    <glyph glyph-name="one" unicode="1" horiz-adv-x="556" 
d="M298 0v654h-2q-30 -41 -79.5 -73t-101.5 -47v20q59 20 97.5 47.5t83.5 78.5h22v-680h-20z" />
    <glyph glyph-name="two" unicode="2" horiz-adv-x="556" 
d="M75 20h438v-20h-458q0 17 3.5 33.5t7.5 29.5t15.5 29t18 26t24 26t25 23.5t29.5 23.5t29 21.5t31.5 22.5t30.5 21q48 33 77.5 56t63 56t49.5 68t16 73q0 77 -52.5 120t-136.5 43q-102 0 -150.5 -58t-48.5 -157h-20q1 113 56.5 174t162.5 61q91 0 150 -47.5t59 -135.5
q0 -40 -16 -77t-48.5 -71t-62.5 -58t-77 -57q-42 -29 -53.5 -37t-45.5 -33t-46.5 -38t-32 -35t-28 -42t-10.5 -41z" />
    <glyph glyph-name="three" unicode="3" horiz-adv-x="556" 
d="M79 469h-20q-1 108 61 165.5t171 57.5q90 0 151.5 -41t61.5 -126q0 -70 -40.5 -111t-105.5 -47v-2q67 -7 113 -51t46 -126q0 -91 -67 -145.5t-163 -54.5q-118 0 -186 64t-61 178h20q-8 -106 54.5 -164t172.5 -58q87 0 148.5 48t61.5 132q0 83 -52.5 124t-142.5 44h-49v20
h49q75 0 128.5 36t53.5 113q-1 76 -57 111.5t-136 35.5q-100 0 -156.5 -51.5t-55.5 -151.5z" />
    <glyph glyph-name="four" unicode="4" horiz-adv-x="556" 
d="M379 197v455h-2l-323 -455h325zM379 177h-345v24l340 479h25v-483h123v-20h-123v-177h-20v177z" />
    <glyph glyph-name="five" unicode="5" horiz-adv-x="556" 
d="M480 660h-333l-62 -291h2q56 92 186 92q104 0 169.5 -66t65.5 -169q0 -108 -65 -173t-170 -65q-108 0 -173.5 61.5t-62.5 168.5h20q-3 -98 56 -154t160 -56q98 0 156.5 59.5t58.5 158.5q0 95 -59.5 155t-155.5 60q-61 0 -112 -27t-78 -77h-25l73 343h349v-20z" />
    <glyph glyph-name="six" unicode="6" horiz-adv-x="556" 
d="M497 223q0 89 -63 152t-152 63t-152 -63t-63 -152t63 -152t152 -63t152 63t63 152zM505 520h-20q-10 44 -31 75.5t-49 47t-55 22.5t-56 7q-58 0 -102.5 -25.5t-69.5 -64.5t-40.5 -92.5t-20 -102t-3.5 -100.5h2q15 73 78 122t144 49q92 0 163.5 -67t71.5 -168
q0 -100 -69.5 -167.5t-165.5 -67.5q-65 0 -117.5 31.5t-80.5 75.5q-45 69 -45 226q0 54 7.5 104t26 99.5t46.5 86t73.5 59t102.5 22.5q86 0 142.5 -48.5t67.5 -123.5z" />
    <glyph glyph-name="seven" unicode="7" horiz-adv-x="556" 
d="M473 660h-412v20h434v-27q-150 -150 -228.5 -305.5t-78.5 -347.5h-20q-4 353 305 660z" />
    <glyph glyph-name="eight" unicode="8" horiz-adv-x="556" 
d="M505 190q0 91 -63.5 131.5t-163.5 40.5t-163.5 -40.5t-63.5 -131.5q0 -92 64.5 -137t162.5 -45t162.5 45t64.5 137zM351 375v-2q81 -8 127.5 -56.5t46.5 -126.5q0 -100 -70 -151t-177 -51t-177 51t-70 151q0 78 46.5 126.5t127.5 56.5v2q-60 8 -100 48t-40 97
q0 87 59 129.5t154 42.5t154 -42.5t59 -129.5q0 -57 -40 -97t-100 -48zM471 520q0 80 -55 116t-138 36t-138 -36t-55 -116q0 -67 58.5 -102.5t134.5 -35.5t134.5 35.5t58.5 102.5z" />
    <glyph glyph-name="nine" unicode="9" horiz-adv-x="556" 
d="M51 160h20q10 -44 31 -75.5t49 -47t55 -22.5t56 -7q58 0 102.5 25.5t69.5 64.5t40.5 92.5t20 102t3.5 100.5h-2q-15 -73 -78 -122t-144 -49q-92 0 -163.5 67t-71.5 168q0 100 69.5 167.5t165.5 67.5q65 0 117.5 -31.5t80.5 -75.5q46 -69 46 -226q0 -68 -13 -130
t-40.5 -118t-80 -89.5t-123.5 -33.5q-86 0 -142.5 48.5t-67.5 123.5zM489 457q0 89 -63 152t-152 63t-152 -63t-63 -152t63 -152t152 -63t152 63t63 152z" />
    <glyph glyph-name="colon" unicode=":" horiz-adv-x="278" 
d="M149 0h-20v98h20v-98zM149 416h-20v98h20v-98z" />
    <glyph glyph-name="semicolon" unicode=";" horiz-adv-x="278" 
d="M149 98v-98q0 -88 -44 -119v20q24 24 24 99v98h20zM149 416h-20v98h20v-98z" />
    <glyph glyph-name="less" unicode="&#x3c;" horiz-adv-x="600" 
d="M554 13v-21l-508 249v24l508 249v-21l-490 -240z" />
    <glyph glyph-name="equal" unicode="=" horiz-adv-x="600" 
d="M552 340h-504v20h504v-20zM552 146h-504v20h504v-20z" />
    <glyph glyph-name="greater" unicode="&#x3e;" horiz-adv-x="600" 
d="M46 13l490 240l-490 240v21l508 -249v-24l-508 -249v21z" />
    <glyph glyph-name="question" unicode="?" 
d="M55 493h-20q-4 106 54.5 172t162.5 66q85 0 141 -44.5t56 -121.5q0 -33 -9 -61.5t-25 -50t-28.5 -34.5t-29.5 -28q-4 -3 -6 -5q-58 -56 -78.5 -95.5t-20.5 -108.5h-20q0 67 21 112t77 100q1 1 16 13.5t26.5 25t26 32t22.5 45.5t8 55q0 69 -49 107.5t-128 38.5
q-97 0 -149 -59.5t-48 -158.5zM252 0h-20v98h20v-98z" />
    <glyph glyph-name="at" unicode="@" horiz-adv-x="800" 
d="M488 272l71 184q-13 48 -50 69t-82 21q-88 0 -150.5 -88.5t-62.5 -180.5q0 -54 34 -89.5t86 -35.5q108 0 154 120zM570 481l24 66h21l-111 -288q-42 -107 25 -107q66 0 129.5 77.5t64.5 181.5q1 123 -85.5 202t-218.5 79q-145 0 -243.5 -99t-98.5 -240q0 -163 98.5 -254
t243.5 -91q88 0 164.5 44t125.5 114h23q-49 -80 -135 -129t-178 -49q-69 0 -132 22t-115.5 65t-83.5 115t-31 163q0 153 106 256t256 103q138 0 230.5 -82.5t93.5 -218.5q1 -111 -69 -195t-147 -84q-30 0 -47 18t-12 45h-2q-46 -63 -136 -63q-58 0 -97 42t-39 103
q0 64 28.5 129.5t85 112.5t123.5 47q48 0 86.5 -23t50.5 -62h2z" />
    <glyph glyph-name="A" unicode="A" horiz-adv-x="575" 
d="M114 255h348l-170 439h-2zM470 235h-364l-95 -235h-23l290 714h26l282 -714h-22z" />
    <glyph glyph-name="B" unicode="B" horiz-adv-x="611" 
d="M67 362v-342h284q91 0 148.5 44.5t57.5 128.5q0 87 -59 128t-144 41h-287zM47 0v714h307q88 0 144.5 -46t56.5 -132q0 -65 -43 -112t-108 -51v-2q73 -2 123 -50t50 -127q0 -93 -64.5 -143.5t-170.5 -50.5h-295zM67 694v-312h287q76 0 128.5 40.5t52.5 113.5q0 78 -50 118
t-131 40h-287z" />
    <glyph glyph-name="C" unicode="C" horiz-adv-x="685" 
d="M642 280h20q-19 -135 -101 -216t-213 -81q-142 0 -232.5 103.5t-90.5 264.5q0 54 11.5 106t37.5 102t63.5 88t95.5 61t128 23q67 0 123 -23.5t89.5 -59.5t52.5 -74.5t20 -73.5h-20q-7 83 -80.5 147t-184.5 64q-68 0 -123 -23.5t-90 -60.5t-59 -85.5t-34 -96t-10 -94.5
q0 -144 82 -246t221 -102q124 0 200.5 76.5t93.5 200.5z" />
    <glyph glyph-name="D" unicode="D" horiz-adv-x="648" 
d="M54 0v714h250q58 0 108.5 -17t96 -55.5t72.5 -111t27 -173.5q0 -93 -27.5 -163.5t-75.5 -111.5t-106.5 -61.5t-125.5 -20.5h-219zM74 694v-674h204q135 0 222.5 86t87.5 251q0 77 -16.5 137t-43.5 97t-65.5 61t-78 33t-85.5 9h-225z" />
    <glyph glyph-name="E" unicode="E" horiz-adv-x="537" 
d="M74 362v-342h458v-20h-478v714h474v-20h-454v-312h427v-20h-427z" />
    <glyph glyph-name="F" unicode="F" horiz-adv-x="481" 
d="M74 694v-312h380v-20h-380v-362h-20v714h440v-20h-420z" />
    <glyph glyph-name="G" unicode="G" horiz-adv-x="722" 
d="M654 314h-277v20h297v-335h-20v178h-2q-28 -90 -104 -142t-181 -52q-159 0 -247 106t-88 268q0 161 90.5 267.5t244.5 106.5q119 0 199 -65t97 -175h-20q-19 101 -92.5 160.5t-183.5 59.5q-145 0 -230 -101.5t-85 -252.5q0 -153 83 -253.5t235 -100.5q120 0 202 78
t82 196v37z" />
    <glyph glyph-name="H" unicode="H" horiz-adv-x="648" 
d="M574 362h-500v-362h-20v714h20v-332h500v332h20v-714h-20v362z" />
    <glyph glyph-name="I" unicode="I" horiz-adv-x="128" 
d="M54 0v714h20v-714h-20z" />
    <glyph glyph-name="J" unicode="J" horiz-adv-x="463" 
d="M384 201v513h20v-528q0 -203 -196 -203q-97 0 -143.5 53t-46.5 142v43h20v-43q0 -175 170 -175q89 0 132.5 45t43.5 153z" />
    <glyph glyph-name="K" unicode="K" horiz-adv-x="593" 
d="M238 398l-164 -145v-253h-20v714h20v-434l495 434h30l-345 -304l365 -410h-27z" />
    <glyph glyph-name="L" unicode="L" horiz-adv-x="481" 
d="M74 20h417v-20h-437v714h20v-694z" />
    <glyph glyph-name="M" unicode="M" horiz-adv-x="780" 
d="M391 26l302 688h33v-714h-20v689h-2l-303 -689h-22l-303 689h-2v-689h-20v714h33l302 -688h2z" />
    <glyph glyph-name="N" unicode="N" horiz-adv-x="648" 
d="M54 0v714h30l488 -689h2v689h20v-714h-30l-488 689h-2v-689h-20z" />
    <glyph glyph-name="O" unicode="O" horiz-adv-x="721" 
d="M52 357q2 -157 85 -255.5t224 -98.5t224 98.5t85 255.5q-2 157 -85 255.5t-224 98.5t-224 -98.5t-85 -255.5zM32 357q0 160 87.5 267t241.5 107t241.5 -107t87.5 -267t-87.5 -267t-241.5 -107t-241.5 107t-87.5 267z" />
    <glyph glyph-name="P" unicode="P" horiz-adv-x="574" 
d="M74 694v-349h269q87 0 142 46.5t55 127.5q0 85 -50 130t-147 45h-269zM74 325v-325h-20v714h289q103 0 160 -49.5t57 -145.5q0 -92 -62.5 -143t-164.5 -51h-259z" />
    <glyph glyph-name="Q" unicode="Q" horiz-adv-x="721" 
d="M553 70l-126 86l11 16l129 -89q101 97 103 274q-2 157 -85 255.5t-224 98.5t-224 -98.5t-85 -255.5q2 -157 85 -255.5t224 -98.5q114 0 192 67zM689 -22l-118 80q-85 -75 -210 -75q-154 0 -241.5 107t-87.5 267t87.5 267t241.5 107t241.5 -107t87.5 -267
q0 -182 -106 -286l115 -79z" />
    <glyph glyph-name="R" unicode="R" horiz-adv-x="611" 
d="M74 694v-339h267q86 0 145 45t58 133q-2 161 -193 161h-277zM74 335v-335h-20v714h292q110 0 163 -45t55 -138q2 -71 -38 -119.5t-115 -64.5v-2q85 -11 113 -57.5t28 -140.5q0 -121 17 -147h-22q-15 38 -15 150q0 48 -6.5 79t-26 57t-58 37.5t-98.5 11.5h-269z" />
    <glyph glyph-name="S" unicode="S" horiz-adv-x="611" 
d="M551 514h-20q-7 197 -232 197q-41 0 -78 -8t-71 -25.5t-54.5 -51t-20.5 -79.5q0 -19 4 -35.5t9.5 -29t17 -24t20.5 -19.5t26.5 -16t28.5 -12.5t33.5 -10.5t34 -9t36.5 -8.5t36 -8.5q10 -2 28 -7q34 -9 50.5 -13.5t44.5 -13.5t41.5 -17.5t31.5 -23t26.5 -31.5t15 -40.5
t6.5 -52.5q0 -94 -75 -143t-177 -49q-129 0 -205 62.5t-74 191.5h20q0 -234 259 -234q94 0 163 43.5t69 129.5q0 26 -7 48t-16 37.5t-27.5 28.5t-33 21t-40 16t-40.5 12t-44 10.5t-42 9.5q-112 26 -149 44q-91 44 -91 144q0 51 21.5 88.5t58 57.5t77.5 29t87 9
q113 0 180 -51.5t72 -165.5z" />
    <glyph glyph-name="T" unicode="T" 
d="M240 694h-257v20h534v-20h-257v-694h-20v694z" />
    <glyph glyph-name="U" unicode="U" horiz-adv-x="632" 
d="M558 266v448h20v-448q0 -140 -67.5 -211.5t-194.5 -71.5t-194.5 71.5t-67.5 211.5v448h20v-448q0 -263 242 -263t242 263z" />
    <glyph glyph-name="V" unicode="V" horiz-adv-x="538" 
d="M274 26l262 688h20l-272 -714h-22l-280 714h20l270 -688h2z" />
    <glyph glyph-name="W" unicode="W" horiz-adv-x="870" 
d="M661 25l199 689h20l-207 -714h-27l-210 689h-2l-206 -689h-27l-211 714h21l202 -689h2l206 689h29l209 -689h2z" />
    <glyph glyph-name="X" unicode="X" horiz-adv-x="520" 
d="M261 383l249 331h25l-260 -347l272 -367h-25l-261 351l-263 -351h-25l275 367l-260 347h26z" />
    <glyph glyph-name="Y" unicode="Y" horiz-adv-x="538" 
d="M269 322l275 392h24l-289 -413v-301h-20v301l-289 413h25z" />
    <glyph glyph-name="Z" unicode="Z" 
d="M1 20h507v-20h-527v27l499 667h-471v20h491v-27z" />
    <glyph glyph-name="bracketleft" unicode="[" horiz-adv-x="222" 
d="M96 731h113v-20h-93v-868h93v-20h-113v908z" />
    <glyph glyph-name="backslash" unicode="\" horiz-adv-x="333" 
d="M340 -17h-20l-327 748h20z" />
    <glyph glyph-name="bracketright" unicode="]" horiz-adv-x="222" 
d="M126 -177h-113v20h93v868h-93v20h113v-908z" />
    <glyph glyph-name="asciicircum" unicode="^" horiz-adv-x="600" 
d="M310 680l231 -453h-20l-221 433l-221 -433h-20l231 453h20z" />
    <glyph glyph-name="underscore" unicode="_" 
d="M500 -125h-500v50h500v-50z" />
    <glyph glyph-name="grave" unicode="`" horiz-adv-x="130" 
d="M101 587l-139 144h29l125 -144h-15z" />
    <glyph glyph-name="a" unicode="a" horiz-adv-x="481" 
d="M400 207v95h-2q-8 -11 -22 -18.5t-37.5 -11t-40.5 -5.5t-50.5 -3.5t-48.5 -2.5q-35 -3 -59.5 -8.5t-48.5 -19t-36.5 -40.5t-12.5 -66q0 -50 36 -84.5t114 -34.5q96 0 152 59t56 140zM74 355h-20q4 76 54 123.5t142 47.5q166 0 170 -147v-327q0 -18 10.5 -26.5t25 -7.5
t29.5 2v-20q-20 -1 -39 -0.5t-32.5 13t-13.5 37.5v67h-2q-16 -53 -72 -91t-132 -38q-78 0 -125 36t-47 103q0 45 14.5 76t42.5 46.5t55 22t65 9.5q125 7 151 15q45 12 49 55q1 6 1 13q0 28 -4.5 49t-18.5 44.5t-46 36t-81 12.5q-80 0 -125.5 -39.5t-50.5 -111.5z" />
    <glyph glyph-name="b" unicode="b" horiz-adv-x="537" 
d="M75 256q0 -104 56 -176t152 -72q95 0 147 71.5t52 176.5q0 63 -19.5 118t-66 93.5t-113.5 38.5q-95 0 -151.5 -66t-56.5 -184zM75 714v-344h2q18 72 72 114t134 42q102 0 160.5 -78t58.5 -192q0 -118 -59.5 -193t-159.5 -75q-77 0 -131.5 43t-74.5 113h-2v-144h-20v714
h20z" />
    <glyph glyph-name="c" unicode="c" 
d="M449 175h20q-8 -86 -65.5 -136.5t-144.5 -50.5q-106 0 -167 74t-61 184q0 120 61.5 200t178.5 80q75 0 130 -44.5t64 -123.5h-20q-12 72 -59.5 110t-114.5 38q-59 0 -103 -23t-68.5 -62t-36.5 -83t-12 -92q0 -100 55 -169t153 -69q77 0 130.5 45.5t59.5 121.5z" />
    <glyph glyph-name="d" unicode="d" horiz-adv-x="537" 
d="M455 256q0 118 -56.5 184t-151.5 66q-67 0 -113.5 -38.5t-66 -93.5t-19.5 -118q0 -105 52 -176.5t147 -71.5q96 0 152 72t56 176zM455 370v344h20v-714h-20v144h-2q-20 -70 -74.5 -113t-131.5 -43q-100 0 -159.5 75t-59.5 193q0 114 58.5 192t160.5 78q80 0 134 -42
t72 -114h2z" />
    <glyph glyph-name="e" unicode="e" 
d="M45 273h410q1 99 -53 166t-150 67q-85 0 -143.5 -63.5t-63.5 -169.5zM475 253h-430q2 -112 50.5 -178.5t152.5 -66.5q81 0 134.5 44t66.5 126h20q-10 -88 -70 -139t-149 -51q-114 -1 -169.5 73t-55.5 196q0 123 66.5 196t158.5 73q77 0 130 -39.5t75.5 -100t19.5 -133.5z
" />
    <glyph glyph-name="f" unicode="f" horiz-adv-x="204" 
d="M87 494h-88v20h88v114q0 29 9 47.5t26 26.5t31 10t35 2q8 0 16 -0.5t16 -2t11 -1.5v-20q-25 4 -47 4q-46 0 -61.5 -16.5t-15.5 -56.5v-107h111v-20h-111v-494h-20v494z" />
    <glyph glyph-name="g" unicode="g" horiz-adv-x="519" 
d="M445 274q1 95 -51.5 163.5t-144.5 68.5q-96 0 -148.5 -66.5t-52.5 -165.5t51 -162.5t142 -63.5q96 0 150 64.5t54 161.5zM446 17v155h-2q-15 -66 -74 -105t-128 -39q-102 0 -158 70.5t-56 175.5q0 109 58 180.5t163 71.5q72 0 126 -42.5t69 -106.5h2v137h20v-497
q0 -103 -55.5 -154.5t-158.5 -51.5q-84 0 -139 40t-57 122h20q3 -72 51.5 -107t123.5 -35q195 0 195 186z" />
    <glyph glyph-name="h" unicode="h" 
d="M55 0v714h20v-327h2q15 62 63.5 100.5t121.5 38.5q82 0 132.5 -49t50.5 -136v-341h-20v338q0 84 -46 126t-117 42q-88 0 -137.5 -62t-49.5 -153v-291h-20z" />
    <glyph glyph-name="i" unicode="i" horiz-adv-x="130" 
d="M75 514v-514h-20v514h20zM75 714v-101h-20v101h20z" />
    <glyph glyph-name="j" unicode="j" horiz-adv-x="130" 
d="M75 514v-589q0 -66 -28 -83.5t-96 -18.5v20q64 0 84 14.5t20 74.5v582h20zM75 714v-101h-20v101h20z" />
    <glyph glyph-name="k" unicode="k" horiz-adv-x="444" 
d="M208 304l-133 -110v-194h-20v714h20v-495l355 295h29l-236 -196l253 -318h-27z" />
    <glyph glyph-name="l" unicode="l" horiz-adv-x="130" 
d="M55 0v714h20v-714h-20z" />
    <glyph glyph-name="m" unicode="m" horiz-adv-x="778" 
d="M55 0v514h20v-127h2q15 60 60 99.5t104 39.5q60 1 100.5 -31t53.5 -89h2q15 54 60 87t103 33q88 0 125.5 -49t37.5 -139v-338h-20v338q0 83 -32 125.5t-111 42.5q-73 0 -116.5 -52.5t-44.5 -127.5v-326h-20v330q1 81 -29 128.5t-109 47.5q-74 0 -120 -63t-46 -152v-291
h-20z" />
    <glyph glyph-name="n" unicode="n" 
d="M55 0v514h20v-127h2q15 62 63.5 100.5t121.5 38.5q82 0 132.5 -49t50.5 -136v-341h-20v338q0 84 -46 126t-117 42q-88 0 -137.5 -62t-49.5 -153v-291h-20z" />
    <glyph glyph-name="o" unicode="o" horiz-adv-x="519" 
d="M28 257q0 112 62 190.5t170 78.5q107 0 169 -79t62 -190q0 -112 -62 -190.5t-170 -78.5t-169.5 78.5t-61.5 190.5zM48 257q0 -104 56.5 -176.5t155.5 -72.5q98 0 154.5 73t56.5 176q0 102 -56.5 175.5t-154.5 73.5q-99 0 -155.5 -73t-56.5 -176z" />
    <glyph glyph-name="p" unicode="p" horiz-adv-x="537" 
d="M283 8q67 0 113.5 38.5t66 93.5t19.5 118q0 105 -52 176.5t-147 71.5q-96 0 -152 -72t-56 -176q0 -118 56.5 -184t151.5 -66zM75 144v-321h-20v691h20v-144h2q20 70 74.5 113t131.5 43q100 0 159.5 -75t59.5 -193q0 -114 -58.5 -192t-160.5 -78q-80 0 -134 42t-72 114h-2
z" />
    <glyph glyph-name="q" unicode="q" horiz-adv-x="537" 
d="M455 370v144h20v-691h-20v321h-2q-18 -72 -72 -114t-134 -42q-102 0 -160.5 78t-58.5 192q0 118 59.5 193t159.5 75q77 0 131.5 -43t74.5 -113h2zM455 258q0 104 -56 176t-152 72q-95 0 -147 -71.5t-52 -176.5q0 -63 19.5 -118t66 -93.5t113.5 -38.5q95 0 151.5 66
t56.5 184z" />
    <glyph glyph-name="r" unicode="r" horiz-adv-x="259" 
d="M75 291v-291h-20v514h20v-127h2q16 63 66 102.5t136 36.5v-20q-99 5 -151.5 -59t-52.5 -156z" />
    <glyph glyph-name="s" unicode="s" horiz-adv-x="463" 
d="M410 362h-20q0 74 -44 109t-122 35q-50 0 -84 -13.5t-47.5 -35t-18 -35.5t-4.5 -25q0 -67 57 -90q17 -7 132 -38q28 -7 40.5 -10.5t36.5 -12t36 -17.5t26 -23t20 -32.5t6 -42.5q0 -49 -28.5 -82.5t-69 -47t-88.5 -13.5q-208 0 -208 188h20q0 -84 48.5 -126t139.5 -42
q40 0 76 11.5t63 40t27 69.5q0 13 -3 25t-6.5 21t-12.5 17.5t-14.5 14t-19.5 12t-20 9.5t-24 8t-24 7t-27 7t-26 6q-81 20 -115 35q-62 27 -62 106q0 50 43 89.5t131 39.5t137 -40.5t49 -123.5z" />
    <glyph glyph-name="t" unicode="t" horiz-adv-x="241" 
d="M226 494h-116v-394q0 -27 6 -44.5t17.5 -24.5t21 -9t24.5 -2q35 0 44 3v-20q-36 -3 -49 -3q-84 0 -84 96v398h-95v20h95v162h20v-162h116v-20z" />
    <glyph glyph-name="u" unicode="u" 
d="M445 514v-514h-20v127h-2q-15 -62 -63.5 -100.5t-121.5 -38.5q-82 0 -132.5 49t-50.5 136v341h20v-338q0 -84 46 -126t117 -42q88 0 137.5 62t49.5 153v291h20z" />
    <glyph glyph-name="v" unicode="v" horiz-adv-x="407" 
d="M213 20l184 494h22l-194 -514h-25l-212 514h24l199 -494h2z" />
    <glyph glyph-name="w" unicode="w" horiz-adv-x="685" 
d="M517 20l156 494h20l-164 -514h-26l-160 494h-2l-161 -494h-28l-160 514h20l153 -494h2l159 494h31l158 -494h2z" />
    <glyph glyph-name="x" unicode="x" horiz-adv-x="407" 
d="M203 281l177 233h24l-188 -248l206 -266h-25l-194 251l-193 -251h-25l206 266l-187 248h26z" />
    <glyph glyph-name="y" unicode="y" horiz-adv-x="407" 
d="M214 27l184 487h21l-237 -619q-10 -25 -23 -40.5t-33 -22t-35.5 -8t-44.5 -1.5v20q55 -1 79 10.5t41 55.5l37 96l-215 509h22z" />
    <glyph glyph-name="z" unicode="z" horiz-adv-x="407" 
d="M26 20h376v-20h-397v25l360 469h-333v20h354v-25z" />
    <glyph glyph-name="braceleft" unicode="{" horiz-adv-x="333" 
d="M280 -177h-50q-41 0 -57 26t-16 85v163q0 66 -15 106t-57 67v20q31 5 51.5 54.5t20.5 112.5v165q0 59 16 84t57 25h50v-20h-48q-30 0 -42.5 -23t-12.5 -84v-164q0 -51 -18.5 -99t-53.5 -63q33 -16 52.5 -61t19.5 -103v-162q0 -64 12.5 -86.5t42.5 -22.5h48v-20z" />
    <glyph glyph-name="bar" unicode="|" horiz-adv-x="222" 
d="M121 -17h-20v748h20v-748z" />
    <glyph glyph-name="braceright" unicode="}" horiz-adv-x="333" 
d="M53 731h50q41 0 57 -26t16 -85v-163q0 -66 15 -106t57 -67v-20q-31 -5 -51.5 -54.5t-20.5 -112.5v-165q0 -59 -16 -84t-57 -25h-50v20h48q30 0 42.5 23t12.5 84v164q0 51 18.5 99t53.5 63q-33 16 -52.5 61t-19.5 103v162q0 64 -12.5 86.5t-42.5 22.5h-48v20z" />
    <glyph glyph-name="asciitilde" unicode="~" horiz-adv-x="600" 
d="M503 301l20 -6q-25 -40 -49.5 -63t-59.5 -23q-12 0 -25.5 3.5t-21.5 6.5t-26 11t-24 11q-3 1 -17 8t-19 9t-18 7t-21.5 7t-21 4t-25.5 2q-56 0 -98 -73l-20 6q46 87 118 87q39 2 117 -34q82 -35 103 -35q19 0 36.5 12t27 24.5t24.5 35.5z" />
    <glyph glyph-name="exclamdown" unicode="&#xa1;" horiz-adv-x="185" 
d="M83 542h20v-98h-20v98zM83 360h20v-537h-20v537z" />
    <glyph glyph-name="cent" unicode="&#xa2;" horiz-adv-x="556" 
d="M272 8v497q-93 -4 -143 -76.5t-50 -170.5q0 -100 50 -173t143 -77zM292 505v-497h5q73 0 122.5 47t57.5 120h20q-10 -87 -66 -136.5t-139 -50.5v-109h-20v109q-102 4 -157.5 82t-55.5 188q0 106 56.5 184.5t156.5 82.5v88h20v-88q81 -2 136 -45t64 -122h-20
q-11 71 -59 108t-121 39z" />
    <glyph glyph-name="sterling" unicode="&#xa3;" horiz-adv-x="556" 
d="M138 365h158v-20h-149q30 -53 30 -136q0 -107 -99 -191l2 -2q49 37 102 37q29 0 99 -24q66 -26 96 -26q44 0 76.5 19.5t76.5 63.5l13 -14q-43 -49 -81 -69t-85 -20q-37 0 -100 25q-75 25 -95 25q-64 0 -125 -50l-18 20q118 100 118 206q0 82 -32 136h-76v20h66
q-4 9 -21 40t-25 48t-16 43.5t-8 48.5q0 90 65.5 138t160.5 48q116 0 179.5 -68t50.5 -183h-20q10 110 -48 170.5t-162 60.5q-86 0 -146 -41.5t-60 -124.5q0 -22 8.5 -48t17 -44t25 -47.5t22.5 -40.5z" />
    <glyph glyph-name="currency" unicode="&#xa4;" horiz-adv-x="556" 
d="M446 522l57 57l14 -14l-57 -57q66 -70 66 -168q0 -96 -66 -168l57 -57l-14 -14l-57 57q-70 -64 -168 -66q-96 0 -168 66l-57 -57l-14 14l57 57q-66 72 -66 168q2 98 66 168l-57 57l14 14l57 -57q72 66 168 66q98 0 168 -66zM506 340q0 94 -67 161t-161 67t-161 -67
t-67 -161t67 -161t161 -67t161 67t67 161z" />
    <glyph glyph-name="yen" unicode="&#xa5;" horiz-adv-x="556" 
d="M287 305v-102h147v-20h-147v-183h-20v183h-147v20h147v102h-147v20h138l-237 389h22l234 -383h2l234 383h22l-237 -389h136v-20h-147z" />
    <glyph glyph-name="brokenbar" unicode="&#xa6;" horiz-adv-x="222" 
d="M121 271v-288h-20v288h20zM101 731h20v-288h-20v288z" />
    <glyph glyph-name="section" unicode="&#xa7;" horiz-adv-x="556" 
d="M442 546h-20q-2 78 -41 121.5t-112 43.5q-31 0 -60 -9t-53.5 -36.5t-22.5 -69.5q2 -59 57 -99q27 -19 70 -43t65 -38q106 -68 140 -110.5t34 -101.5q0 -49 -39 -87t-78 -49q64 -53 59 -123q-5 -66 -51 -100t-112 -34q-85 0 -131 51t-44 143h20q-1 -81 36.5 -127
t118.5 -47q70 -1 106.5 36t36.5 78q0 42 -14.5 67t-65.5 62q-24 17 -87.5 56.5t-88.5 56.5q-66 44 -87 80t-21 83q0 45 32.5 84t76.5 55q-53 45 -53 109q0 39 16.5 67.5t43 41.5t50.5 18.5t48 5.5q78 0 124.5 -50.5t46.5 -134.5zM479 205q0 51 -33 90.5t-132 103.5
q-18 11 -68 39.5t-62 36.5q-20 -6 -41.5 -19t-43.5 -44t-22 -70q0 -74 100 -139q173 -111 186 -121q39 9 77.5 42t38.5 81z" />
    <glyph glyph-name="dieresis" unicode="&#xa8;" horiz-adv-x="130" 
d="M-3 590h-20v81h20v-81zM153 590h-20v81h20v-81z" />
    <glyph glyph-name="copyright" unicode="&#xa9;" horiz-adv-x="800" 
d="M593 428h-20q-9 63 -55.5 97t-109.5 34q-92 0 -144.5 -58t-52.5 -149t54.5 -151.5t145.5 -60.5q57 0 102 36.5t60 99.5h20q-16 -70 -65.5 -113t-116.5 -43q-99 0 -159.5 66t-60.5 165q0 100 58.5 164t158.5 64q73 0 124.5 -40t60.5 -111zM26 357q0 155 109.5 264.5
t264.5 109.5t264.5 -109.5t109.5 -264.5t-109.5 -264.5t-264.5 -109.5t-264.5 109.5t-109.5 264.5zM46 357q0 -147 103.5 -250.5t250.5 -103.5t250.5 103.5t103.5 250.5t-103.5 250.5t-250.5 103.5t-250.5 -103.5t-103.5 -250.5z" />
    <glyph glyph-name="ordfeminine" unicode="&#xaa;" horiz-adv-x="300" 
d="M246 504v48h-2q-5 -7 -13.5 -11.5t-21.5 -7t-24.5 -3.5t-30.5 -2t-31 -2q-49 -5 -76 -20t-27 -55q0 -33 26.5 -48.5t65.5 -15.5q63 0 98.5 33t35.5 84zM300 394v-20q-16 -1 -25.5 0t-19 8.5t-9.5 22.5v41h-2v-7q-11 -34 -45.5 -53t-86.5 -19q-48 0 -80 21t-32 63
q0 53 33 72t90 23q9 0 26 0.5t26 1t22 2t20.5 4.5t15 7.5t10.5 12t3 17.5q0 43 -23.5 62t-73.5 19q-97 0 -108 -84h-20q11 104 128 104q114 0 117 -89v-190q0 -11 5 -15.5t12.5 -4.5t16.5 1z" />
    <glyph glyph-name="guillemotleft" unicode="&#xab;" horiz-adv-x="352" 
d="M169 156v-35l-103 139v16l103 139v-35l-83 -112zM262 156v-35l-103 139v16l103 139v-35l-83 -112z" />
    <glyph glyph-name="logicalnot" unicode="&#xac;" horiz-adv-x="600" 
d="M532 93v247h-484v20h504v-267h-20z" />
    <glyph glyph-name="registered" unicode="&#xae;" horiz-adv-x="800" 
d="M274 135v430h141q142 0 142 -116q0 -52 -31.5 -80t-80.5 -32l132 -202h-25l-129 200q-10 -1 -31 -1h-98v-199h-20zM294 354h104q139 0 139 95q0 96 -124 96h-119v-191zM26 357q0 155 109.5 264.5t264.5 109.5t264.5 -109.5t109.5 -264.5t-109.5 -264.5t-264.5 -109.5
t-264.5 109.5t-109.5 264.5zM46 357q0 -147 103.5 -250.5t250.5 -103.5t250.5 103.5t103.5 250.5t-103.5 250.5t-250.5 103.5t-250.5 -103.5t-103.5 -250.5z" />
    <glyph glyph-name="macron" unicode="&#xaf;" horiz-adv-x="130" 
d="M181 648v-20h-232v20h232z" />
    <glyph glyph-name="degree" unicode="&#xb0;" horiz-adv-x="400" 
d="M323 549q0 51 -35 87t-88 36q-49 0 -86 -37.5t-37 -85.5q0 -53 36.5 -89t86.5 -36q52 0 87.5 36t35.5 89zM343 549q0 -60 -41.5 -102.5t-101.5 -42.5t-101.5 42t-41.5 103q0 59 41.5 101t101.5 42t101.5 -42t41.5 -101z" />
    <glyph glyph-name="plusminus" unicode="&#xb1;" horiz-adv-x="600" 
d="M290 308v198h20v-198h242v-20h-242v-198h-20v198h-242v20h242zM48 0v20h504v-20h-504z" />
    <glyph glyph-name="twosuperior" unicode="&#xb2;" horiz-adv-x="333" 
d="M41 297h275v-20h-298q0 14 3.5 27t8 23t15.5 22t17 18.5t22 18.5t22.5 16.5t26 17t24.5 15.5q42 28 64.5 45.5t42.5 47t20 60.5q0 41 -32 62.5t-84 21.5q-64 0 -93.5 -31t-28.5 -90h-20q2 70 35 105.5t107 35.5q60 0 98 -26t38 -78q0 -43 -27 -79t-105 -87
q-63 -40 -95.5 -68.5t-35.5 -56.5z" />
    <glyph glyph-name="threesuperior" unicode="&#xb3;" horiz-adv-x="333" 
d="M44 559h-20q-1 63 40.5 98t110.5 35q59 0 99 -23t40 -77q0 -42 -29 -68.5t-73 -26.5v-2q48 -3 79 -29.5t31 -75.5q0 -55 -43.5 -87.5t-105.5 -32.5q-78 0 -122 38t-40 107h20q-5 -61 34 -93t107 -32q54 0 92 26.5t38 73.5q0 51 -36.5 73.5t-92.5 22.5h-24v21h26
q51 0 85 20.5t34 64.5q0 80 -120 80q-130 0 -130 -113z" />
    <glyph glyph-name="acute" unicode="&#xb4;" horiz-adv-x="130" 
d="M142 731h29l-146 -144h-15z" />
    <glyph glyph-name="mu" unicode="&#xb5;" horiz-adv-x="556" 
d="M472 514v-514h-20v127h-2q-14 -62 -63 -100.5t-122 -38.5q-119 0 -160 93h-2v-258h-20v691h19v-338q0 -84 46 -126t117 -42q88 0 137.5 62t49.5 153v291h20z" />
    <glyph glyph-name="paragraph" unicode="&#xb6;" horiz-adv-x="600" 
d="M289 714h202v-854h-20v834h-163v-834h-20v468q-97 0 -159.5 55.5t-62.5 134.5q0 94 58.5 145t164.5 51z" />
    <glyph glyph-name="periodcentered" unicode="&#xb7;" horiz-adv-x="278" 
d="M107 340q0 14 9.5 23t22.5 9t22.5 -9t9.5 -23t-9.5 -23t-22.5 -9t-22.5 9t-9.5 23z" />
    <glyph glyph-name="cedilla" unicode="&#xb8;" horiz-adv-x="130" 
d="M-25 -166l9 19q46 -16 73 -16q78 0 78 53q0 19 -18 29.5t-37 10.5q-32 0 -54 -13l-15 10l57 73h20l-41 -56q2 0 12 3t21 3q32 0 53.5 -14.5t21.5 -45.5q0 -73 -98 -73q-28 0 -82 17z" />
    <glyph glyph-name="onesuperior" unicode="&#xb9;" horiz-adv-x="333" 
d="M181 277v385h-2q-35 -49 -117 -72v19q38 12 63 28.5t54 47.5h22v-408h-20z" />
    <glyph glyph-name="ordmasculine" unicode="&#xba;" horiz-adv-x="300" 
d="M0 531q0 67 40.5 114t110.5 47t110 -47t40 -114q0 -68 -40 -116t-111 -48q-70 0 -110 48t-40 116zM20 531q0 -58 36 -101t95 -43t94.5 43.5t35.5 100.5q0 56 -35.5 98.5t-94.5 42.5t-95 -42.5t-36 -98.5z" />
    <glyph glyph-name="guillemotright" unicode="&#xbb;" horiz-adv-x="352" 
d="M183 380v35l103 -139v-16l-103 -139v35l83 112zM90 380v35l103 -139v-16l-103 -139v35l83 112z" />
    <glyph glyph-name="onequarter" unicode="&#xbc;" horiz-adv-x="834" 
d="M144 -34l476 748h23l-476 -748h-23zM221 277v385h-2q-35 -49 -117 -72v19q38 12 63 28.5t54 47.5h22v-408h-20zM635 122v257v2l-2 -2l-198 -257h200zM635 102h-221v25l216 281h25v-286h76v-20h-76v-102h-20v102z" />
    <glyph glyph-name="onehalf" unicode="&#xbd;" horiz-adv-x="834" 
d="M97 -34l476 748h23l-476 -748h-23zM184 277v385h-2q-35 -49 -117 -72v19q38 12 63 28.5t54 47.5h22v-408h-20zM495 20h275v-20h-298q0 14 3.5 27t8 23t15.5 22t17 18.5t22 18.5t22.5 16.5t26 17t24.5 15.5q42 28 64.5 45.5t42.5 47t20 60.5q0 41 -32 62.5t-84 21.5
q-64 0 -93.5 -31t-28.5 -90h-20q2 70 35 105.5t107 35.5q60 0 98 -26t38 -78q0 -43 -27 -79t-105 -87q-63 -40 -95.5 -68.5t-35.5 -56.5z" />
    <glyph glyph-name="threequarters" unicode="&#xbe;" horiz-adv-x="834" 
d="M198 -34l476 748h23l-476 -748h-23zM683 122v257v2l-2 -2l-198 -257h200zM683 102h-221v25l216 281h25v-286h76v-20h-76v-102h-20v102zM88 559h-20q-1 63 40.5 98t110.5 35q59 0 99 -23t40 -77q0 -42 -29 -68.5t-73 -26.5v-2q48 -3 79 -29.5t31 -75.5q0 -55 -43.5 -87.5
t-105.5 -32.5q-78 0 -122 38t-40 107h20q-5 -61 34 -93t107 -32q54 0 92 26.5t38 73.5q0 51 -36.5 74t-92.5 23q-16 0 -24 -1v21h26q51 0 85 20.5t34 64.5q0 80 -120 80q-130 0 -130 -113z" />
    <glyph glyph-name="questiondown" unicode="&#xbf;" 
d="M445 49h20q4 -106 -54.5 -172t-162.5 -66q-85 0 -141 44.5t-56 121.5q0 35 9 64t29 54t28 33t31 28q58 56 78.5 95.5t20.5 108.5h20q0 -67 -21 -112t-77 -100q-1 -1 -16 -13.5t-26 -25t-25.5 -32t-22.5 -45.5t-8 -55q0 -69 49 -107.5t128 -38.5q97 0 149 59.5t48 158.5z
M248 542h20v-98h-20v98z" />
    <glyph glyph-name="Agrave" unicode="&#xc0;" horiz-adv-x="575" 
d="M114 255h348l-170 439h-2zM470 235h-364l-95 -235h-23l290 714h26l282 -714h-22zM324 765l-139 144h29l125 -144h-15z" />
    <glyph glyph-name="Aacute" unicode="&#xc1;" horiz-adv-x="575" 
d="M114 255h348l-170 439h-2zM470 235h-364l-95 -235h-23l290 714h26l282 -714h-22zM365 909h29l-146 -144h-15z" />
    <glyph glyph-name="Acircumflex" unicode="&#xc2;" horiz-adv-x="575" 
d="M114 255h348l-170 439h-2zM470 235h-364l-95 -235h-23l290 714h26l282 -714h-22zM409 770h-20l-103 123l-99 -123h-20l113 139h15z" />
    <glyph glyph-name="Atilde" unicode="&#xc3;" horiz-adv-x="575" 
d="M114 255h348l-170 439h-2zM470 235h-364l-95 -235h-23l290 714h26l282 -714h-22zM176 780h-20q0 28 21 53.5t47 25.5q24 0 66 -29t61 -29q22 0 35.5 16.5t13.5 38.5h20q0 -31 -18 -53t-51 -22q-26 0 -66 29t-61 29q-20 0 -34 -19.5t-14 -39.5z" />
    <glyph glyph-name="Adieresis" unicode="&#xc4;" horiz-adv-x="575" 
d="M114 255h348l-170 439h-2zM470 235h-364l-95 -235h-23l290 714h26l282 -714h-22zM220 768h-20v81h20v-81zM376 768h-20v81h20v-81z" />
    <glyph glyph-name="Aring" unicode="&#xc5;" horiz-adv-x="575" 
d="M114 255h348l-170 439h-2zM470 235h-364l-95 -235h-23l290 714h26l282 -714h-22zM376 824q0 -36 -26 -62t-62 -26q-35 0 -61.5 26t-26.5 62q0 35 26.5 61.5t61.5 26.5t61.5 -26.5t26.5 -61.5zM356 824q0 28 -20 48t-48 20t-48 -20t-20 -48t20 -48t48 -20t48 20t20 48z
" />
    <glyph glyph-name="AE" unicode="&#xc6;" horiz-adv-x="852" 
d="M423 274h-268l-145 -274h-22l378 714h469v-20h-392v-312h360v-20h-360v-342h392v-20h-412v274zM423 696h-47l-211 -402h258v402z" />
    <glyph glyph-name="Ccedilla" unicode="&#xc7;" horiz-adv-x="685" 
d="M646 500h-20q-7 83 -80.5 147t-184.5 64q-68 0 -123 -23.5t-90 -60.5t-59 -85.5t-34 -96t-10 -94.5q0 -144 82 -246t221 -102q124 0 200.5 76.5t93.5 200.5h20q-19 -134 -99.5 -215t-209.5 -82l-29 -39q2 0 12 3t21 3q32 0 53.5 -14.5t21.5 -45.5q0 -73 -98 -73
q-28 0 -82 17l9 19q46 -16 73 -16q78 0 78 53q0 19 -18 29.5t-37 10.5q-32 0 -54 -13l-15 10l44 57q-136 6 -221.5 108.5t-85.5 258.5q0 54 11.5 106t37.5 102t63.5 88t95.5 61t128 23q67 0 123 -23.5t89.5 -59.5t52.5 -74.5t20 -73.5z" />
    <glyph glyph-name="Egrave" unicode="&#xc8;" horiz-adv-x="537" 
d="M74 362v-342h458v-20h-478v714h474v-20h-454v-312h427v-20h-427zM305 765l-139 144h29l125 -144h-15z" />
    <glyph glyph-name="Eacute" unicode="&#xc9;" horiz-adv-x="537" 
d="M74 362v-342h458v-20h-478v714h474v-20h-454v-312h427v-20h-427zM346 909h29l-146 -144h-15z" />
    <glyph glyph-name="Ecircumflex" unicode="&#xca;" horiz-adv-x="537" 
d="M74 362v-342h458v-20h-478v714h474v-20h-454v-312h427v-20h-427zM390 770h-20l-103 123l-99 -123h-20l113 139h15z" />
    <glyph glyph-name="Edieresis" unicode="&#xcb;" horiz-adv-x="537" 
d="M74 362v-342h458v-20h-478v714h474v-20h-454v-312h427v-20h-427zM201 768h-20v81h20v-81zM357 768h-20v81h20v-81z" />
    <glyph glyph-name="Igrave" unicode="&#xcc;" horiz-adv-x="128" 
d="M54 0v714h20v-714h-20zM100 765l-139 144h29l125 -144h-15z" />
    <glyph glyph-name="Iacute" unicode="&#xcd;" horiz-adv-x="128" 
d="M54 0v714h20v-714h-20zM141 909h29l-146 -144h-15z" />
    <glyph glyph-name="Icircumflex" unicode="&#xce;" horiz-adv-x="128" 
d="M54 0v714h20v-714h-20zM185 770h-20l-103 123l-99 -123h-20l113 139h15z" />
    <glyph glyph-name="Idieresis" unicode="&#xcf;" horiz-adv-x="128" 
d="M54 0v714h20v-714h-20zM-4 768h-20v81h20v-81zM152 768h-20v81h20v-81z" />
    <glyph glyph-name="Eth" unicode="&#xd0;" horiz-adv-x="648" 
d="M54 362h-64v20h64v332h250q58 0 108.5 -17t96 -55.5t72.5 -111t27 -173.5q0 -93 -27.5 -163.5t-75.5 -111.5t-106.5 -61.5t-125.5 -20.5h-219v362zM371 362h-297v-342h204q135 0 222.5 86t87.5 251q0 77 -16.5 137t-43.5 97t-65.5 61t-78 33t-85.5 9h-225v-312h297v-20z
" />
    <glyph glyph-name="Ntilde" unicode="&#xd1;" horiz-adv-x="648" 
d="M54 0v714h30l488 -689h2v689h20v-714h-30l-488 689h-2v-689h-20zM212 780h-20q0 28 21 53.5t47 25.5q24 0 66 -29t61 -29q22 0 35.5 16.5t13.5 38.5h20q0 -31 -18 -53t-51 -22q-26 0 -66 29t-61 29q-20 0 -34 -19.5t-14 -39.5z" />
    <glyph glyph-name="Ograve" unicode="&#xd2;" horiz-adv-x="721" 
d="M52 357q2 -157 85 -255.5t224 -98.5t224 98.5t85 255.5q-2 157 -85 255.5t-224 98.5t-224 -98.5t-85 -255.5zM32 357q0 160 87.5 267t241.5 107t241.5 -107t87.5 -267t-87.5 -267t-241.5 -107t-241.5 107t-87.5 267zM397 765l-139 144h29l125 -144h-15z" />
    <glyph glyph-name="Oacute" unicode="&#xd3;" horiz-adv-x="721" 
d="M52 357q2 -157 85 -255.5t224 -98.5t224 98.5t85 255.5q-2 157 -85 255.5t-224 98.5t-224 -98.5t-85 -255.5zM32 357q0 160 87.5 267t241.5 107t241.5 -107t87.5 -267t-87.5 -267t-241.5 -107t-241.5 107t-87.5 267zM438 909h29l-146 -144h-15z" />
    <glyph glyph-name="Ocircumflex" unicode="&#xd4;" horiz-adv-x="721" 
d="M52 357q2 -157 85 -255.5t224 -98.5t224 98.5t85 255.5q-2 157 -85 255.5t-224 98.5t-224 -98.5t-85 -255.5zM32 357q0 160 87.5 267t241.5 107t241.5 -107t87.5 -267t-87.5 -267t-241.5 -107t-241.5 107t-87.5 267zM482 770h-20l-103 123l-99 -123h-20l113 139h15z" />
    <glyph glyph-name="Otilde" unicode="&#xd5;" horiz-adv-x="721" 
d="M52 357q2 -157 85 -255.5t224 -98.5t224 98.5t85 255.5q-2 157 -85 255.5t-224 98.5t-224 -98.5t-85 -255.5zM32 357q0 160 87.5 267t241.5 107t241.5 -107t87.5 -267t-87.5 -267t-241.5 -107t-241.5 107t-87.5 267zM249 780h-20q0 28 21 53.5t47 25.5q24 0 66 -29
t61 -29q22 0 35.5 16.5t13.5 38.5h20q0 -31 -18 -53t-51 -22q-26 0 -66 29t-61 29q-20 0 -34 -19.5t-14 -39.5z" />
    <glyph glyph-name="Odieresis" unicode="&#xd6;" horiz-adv-x="721" 
d="M52 357q2 -157 85 -255.5t224 -98.5t224 98.5t85 255.5q-2 157 -85 255.5t-224 98.5t-224 -98.5t-85 -255.5zM32 357q0 160 87.5 267t241.5 107t241.5 -107t87.5 -267t-87.5 -267t-241.5 -107t-241.5 107t-87.5 267zM293 768h-20v81h20v-81zM449 768h-20v81h20v-81z" />
    <glyph glyph-name="multiply" unicode="&#xd7;" horiz-adv-x="600" 
d="M286 253l-190 190l14 13l189 -191l191 191l14 -13l-191 -190l191 -190l-14 -14l-191 191l-189 -191l-14 14z" />
    <glyph glyph-name="Oslash" unicode="&#xd8;" horiz-adv-x="721" 
d="M127 114l454 503q-84 94 -220 94q-141 0 -224 -98.5t-85 -255.5q2 -150 75 -243zM594 601l-454 -502q82 -96 221 -96q141 0 224 98.5t85 255.5q-2 151 -76 244zM40 17l73 81q-81 102 -81 259q0 160 87.5 267t241.5 107q145 0 234 -99l59 65l15 -12l-61 -68
q82 -102 82 -260q0 -160 -87.5 -267t-241.5 -107q-147 0 -235 101l-71 -79z" />
    <glyph glyph-name="Ugrave" unicode="&#xd9;" horiz-adv-x="632" 
d="M558 266v448h20v-448q0 -140 -67.5 -211.5t-194.5 -71.5t-194.5 71.5t-67.5 211.5v448h20v-448q0 -263 242 -263t242 263zM352 765l-139 144h29l125 -144h-15z" />
    <glyph glyph-name="Uacute" unicode="&#xda;" horiz-adv-x="632" 
d="M558 266v448h20v-448q0 -140 -67.5 -211.5t-194.5 -71.5t-194.5 71.5t-67.5 211.5v448h20v-448q0 -263 242 -263t242 263zM393 909h29l-146 -144h-15z" />
    <glyph glyph-name="Ucircumflex" unicode="&#xdb;" horiz-adv-x="632" 
d="M558 266v448h20v-448q0 -140 -67.5 -211.5t-194.5 -71.5t-194.5 71.5t-67.5 211.5v448h20v-448q0 -263 242 -263t242 263zM437 770h-20l-103 123l-99 -123h-20l113 139h15z" />
    <glyph glyph-name="Udieresis" unicode="&#xdc;" horiz-adv-x="632" 
d="M558 266v448h20v-448q0 -140 -67.5 -211.5t-194.5 -71.5t-194.5 71.5t-67.5 211.5v448h20v-448q0 -263 242 -263t242 263zM248 768h-20v81h20v-81zM404 768h-20v81h20v-81z" />
    <glyph glyph-name="Yacute" unicode="&#xdd;" horiz-adv-x="538" 
d="M269 322l275 392h24l-289 -413v-301h-20v301l-289 413h25zM346 931h29l-146 -144h-15z" />
    <glyph glyph-name="Thorn" unicode="&#xde;" horiz-adv-x="574" 
d="M74 570v-349h269q87 0 142 46.5t55 127.5q0 85 -50 130t-147 45h-269zM74 590h269q103 0 160 -49.5t57 -145.5q0 -92 -62.5 -143t-164.5 -51h-259v-201h-20v714h20v-124z" />
    <glyph glyph-name="germandbls" unicode="&#xdf;" horiz-adv-x="481" 
d="M202 387v20q85 -2 139 34.5t54 119.5q0 66 -47 105.5t-117 39.5q-24 0 -46.5 -5t-49.5 -19t-43.5 -47.5t-16.5 -81.5v-553h-20v556q0 88 51 129t125 41q76 0 130 -45t54 -120q0 -64 -32.5 -107.5t-94.5 -53.5v-2q83 -7 123.5 -56.5t40.5 -131.5q0 -104 -58 -159.5
t-192 -50.5v20q230 -12 230 190q0 54 -16.5 90t-49 54.5t-71.5 25.5t-93 7z" />
    <glyph glyph-name="agrave" unicode="&#xe0;" horiz-adv-x="481" 
d="M400 207v95h-2q-8 -11 -22 -18.5t-37.5 -11t-40.5 -5.5t-50.5 -3.5t-48.5 -2.5q-35 -3 -59.5 -8.5t-48.5 -19t-36.5 -40.5t-12.5 -66q0 -50 36 -84.5t114 -34.5q96 0 152 59t56 140zM74 355h-20q4 76 54 123.5t142 47.5q166 0 170 -147v-327q0 -18 10.5 -26.5t25 -7.5
t29.5 2v-20q-20 -1 -39 -0.5t-32.5 13t-13.5 37.5v67h-2q-16 -53 -72 -91t-132 -38q-78 0 -125 36t-47 103q0 45 14.5 76t42.5 46.5t55 22t65 9.5q125 7 151 15q45 12 49 55q1 6 1 13q0 28 -4.5 49t-18.5 44.5t-46 36t-81 12.5q-80 0 -125.5 -39.5t-50.5 -111.5zM277 565
l-139 144h29l125 -144h-15z" />
    <glyph glyph-name="aacute" unicode="&#xe1;" horiz-adv-x="481" 
d="M400 207v95h-2q-8 -11 -22 -18.5t-37.5 -11t-40.5 -5.5t-50.5 -3.5t-48.5 -2.5q-35 -3 -59.5 -8.5t-48.5 -19t-36.5 -40.5t-12.5 -66q0 -50 36 -84.5t114 -34.5q96 0 152 59t56 140zM74 355h-20q4 76 54 123.5t142 47.5q166 0 170 -147v-327q0 -18 10.5 -26.5t25 -7.5
t29.5 2v-20q-20 -1 -39 -0.5t-32.5 13t-13.5 37.5v67h-2q-16 -53 -72 -91t-132 -38q-78 0 -125 36t-47 103q0 45 14.5 76t42.5 46.5t55 22t65 9.5q125 7 151 15q45 12 49 55q1 6 1 13q0 28 -4.5 49t-18.5 44.5t-46 36t-81 12.5q-80 0 -125.5 -39.5t-50.5 -111.5zM318 709h29
l-146 -144h-15z" />
    <glyph glyph-name="acircumflex" unicode="&#xe2;" horiz-adv-x="481" 
d="M400 207v95h-2q-8 -11 -22 -18.5t-37.5 -11t-40.5 -5.5t-50.5 -3.5t-48.5 -2.5q-35 -3 -59.5 -8.5t-48.5 -19t-36.5 -40.5t-12.5 -66q0 -50 36 -84.5t114 -34.5q96 0 152 59t56 140zM74 355h-20q4 76 54 123.5t142 47.5q166 0 170 -147v-327q0 -18 10.5 -26.5t25 -7.5
t29.5 2v-20q-20 -1 -39 -0.5t-32.5 13t-13.5 37.5v67h-2q-16 -53 -72 -91t-132 -38q-78 0 -125 36t-47 103q0 45 14.5 76t42.5 46.5t55 22t65 9.5q125 7 151 15q45 12 49 55q1 6 1 13q0 28 -4.5 49t-18.5 44.5t-46 36t-81 12.5q-80 0 -125.5 -39.5t-50.5 -111.5zM362 570
h-20l-103 123l-99 -123h-20l113 139h15z" />
    <glyph glyph-name="atilde" unicode="&#xe3;" horiz-adv-x="481" 
d="M400 207v95h-2q-8 -11 -22 -18.5t-37.5 -11t-40.5 -5.5t-50.5 -3.5t-48.5 -2.5q-35 -3 -59.5 -8.5t-48.5 -19t-36.5 -40.5t-12.5 -66q0 -50 36 -84.5t114 -34.5q96 0 152 59t56 140zM74 355h-20q4 76 54 123.5t142 47.5q166 0 170 -147v-327q0 -18 10.5 -26.5t25 -7.5
t29.5 2v-20q-20 -1 -39 -0.5t-32.5 13t-13.5 37.5v67h-2q-16 -53 -72 -91t-132 -38q-78 0 -125 36t-47 103q0 45 14.5 76t42.5 46.5t55 22t65 9.5q125 7 151 15q45 12 49 55q1 6 1 13q0 28 -4.5 49t-18.5 44.5t-46 36t-81 12.5q-80 0 -125.5 -39.5t-50.5 -111.5zM129 580
h-20q0 28 21 53.5t47 25.5q24 0 66 -29t61 -29q22 0 35.5 16.5t13.5 38.5h20q0 -31 -18 -53t-51 -22q-26 0 -66 29t-61 29q-20 0 -34 -19.5t-14 -39.5z" />
    <glyph glyph-name="adieresis" unicode="&#xe4;" horiz-adv-x="481" 
d="M400 207v95h-2q-8 -11 -22 -18.5t-37.5 -11t-40.5 -5.5t-50.5 -3.5t-48.5 -2.5q-35 -3 -59.5 -8.5t-48.5 -19t-36.5 -40.5t-12.5 -66q0 -50 36 -84.5t114 -34.5q96 0 152 59t56 140zM74 355h-20q4 76 54 123.5t142 47.5q166 0 170 -147v-327q0 -18 10.5 -26.5t25 -7.5
t29.5 2v-20q-20 -1 -39 -0.5t-32.5 13t-13.5 37.5v67h-2q-16 -53 -72 -91t-132 -38q-78 0 -125 36t-47 103q0 45 14.5 76t42.5 46.5t55 22t65 9.5q125 7 151 15q45 12 49 55q1 6 1 13q0 28 -4.5 49t-18.5 44.5t-46 36t-81 12.5q-80 0 -125.5 -39.5t-50.5 -111.5zM173 568
h-20v81h20v-81zM329 568h-20v81h20v-81z" />
    <glyph glyph-name="aring" unicode="&#xe5;" horiz-adv-x="481" 
d="M400 207v95h-2q-8 -11 -22 -18.5t-37.5 -11t-40.5 -5.5t-50.5 -3.5t-48.5 -2.5q-35 -3 -59.5 -8.5t-48.5 -19t-36.5 -40.5t-12.5 -66q0 -50 36 -84.5t114 -34.5q96 0 152 59t56 140zM74 355h-20q4 76 54 123.5t142 47.5q166 0 170 -147v-327q0 -18 10.5 -26.5t25 -7.5
t29.5 2v-20q-20 -1 -39 -0.5t-32.5 13t-13.5 37.5v67h-2q-16 -53 -72 -91t-132 -38q-78 0 -125 36t-47 103q0 45 14.5 76t42.5 46.5t55 22t65 9.5q125 7 151 15q45 12 49 55q1 6 1 13q0 28 -4.5 49t-18.5 44.5t-46 36t-81 12.5q-80 0 -125.5 -39.5t-50.5 -111.5zM329 674
q0 -36 -26 -62t-62 -26q-35 0 -61.5 26t-26.5 62q0 35 26.5 61.5t61.5 26.5t61.5 -26.5t26.5 -61.5zM309 674q0 28 -20 48t-48 20t-48 -20t-20 -48t20 -48t48 -20t48 20t20 48z" />
    <glyph glyph-name="ae" unicode="&#xe6;" horiz-adv-x="889" 
d="M430 273h407q0 102 -51.5 167.5t-148.5 65.5q-93 0 -146 -62t-61 -171zM410 207v95h-2q-8 -11 -22 -18.5t-37.5 -11t-40.5 -5.5t-50.5 -3.5t-48.5 -2.5q-35 -3 -59.5 -8.5t-48.5 -19t-36.5 -40.5t-12.5 -66q0 -50 36 -84.5t114 -34.5q96 0 152 59t56 140zM84 355h-20
q4 76 54 123.5t142 47.5q166 0 170 -150h2q21 68 74 109t131 41q111 0 168 -79t52 -194h-427q4 -111 53 -178t152 -67q79 0 134 44.5t65 125.5h20q-8 -85 -68 -137t-151 -53q-82 -1 -137 43t-75 124h-2q-15 -77 -75.5 -122t-141.5 -45q-78 0 -125 36t-47 103q0 45 14.5 76
t42.5 46.5t55 22t65 9.5q125 7 151 15q45 12 49 55q1 6 1 13q0 28 -4.5 49t-18.5 44.5t-46 36t-81 12.5q-80 0 -125.5 -39.5t-50.5 -111.5z" />
    <glyph glyph-name="ccedilla" unicode="&#xe7;" 
d="M449 175h20q-8 -84 -63.5 -134t-140.5 -52l-33 -45q2 0 12 3t21 3q32 0 53.5 -14.5t21.5 -45.5q0 -73 -98 -73q-28 0 -82 17l9 19q46 -16 73 -16q78 0 78 53q0 19 -18 29.5t-37 10.5q-32 0 -54 -13l-15 10l49 63q-99 4 -156.5 77.5t-57.5 178.5q0 120 61.5 200t178.5 80
q75 0 130 -44.5t64 -123.5h-20q-12 72 -59.5 110t-114.5 38q-59 0 -103 -23t-68.5 -62t-36.5 -83t-12 -92q0 -100 55 -169t153 -69q77 0 130.5 45.5t59.5 121.5z" />
    <glyph glyph-name="egrave" unicode="&#xe8;" 
d="M45 273h410q1 99 -53 166t-150 67q-85 0 -143.5 -63.5t-63.5 -169.5zM475 253h-430q2 -112 50.5 -178.5t152.5 -66.5q81 0 134.5 44t66.5 126h20q-10 -88 -70 -139t-149 -51q-114 -1 -169.5 73t-55.5 196q0 123 66.5 196t158.5 73q77 0 130 -39.5t75.5 -100t19.5 -133.5z
M286 565l-139 144h29l125 -144h-15z" />
    <glyph glyph-name="eacute" unicode="&#xe9;" 
d="M45 273h410q1 99 -53 166t-150 67q-85 0 -143.5 -63.5t-63.5 -169.5zM475 253h-430q2 -112 50.5 -178.5t152.5 -66.5q81 0 134.5 44t66.5 126h20q-10 -88 -70 -139t-149 -51q-114 -1 -169.5 73t-55.5 196q0 123 66.5 196t158.5 73q77 0 130 -39.5t75.5 -100t19.5 -133.5z
M327 709h29l-146 -144h-15z" />
    <glyph glyph-name="ecircumflex" unicode="&#xea;" 
d="M45 273h410q1 99 -53 166t-150 67q-85 0 -143.5 -63.5t-63.5 -169.5zM475 253h-430q2 -112 50.5 -178.5t152.5 -66.5q81 0 134.5 44t66.5 126h20q-10 -88 -70 -139t-149 -51q-114 -1 -169.5 73t-55.5 196q0 123 66.5 196t158.5 73q77 0 130 -39.5t75.5 -100t19.5 -133.5z
M371 570h-20l-103 123l-99 -123h-20l113 139h15z" />
    <glyph glyph-name="edieresis" unicode="&#xeb;" 
d="M45 273h410q1 99 -53 166t-150 67q-85 0 -143.5 -63.5t-63.5 -169.5zM475 253h-430q2 -112 50.5 -178.5t152.5 -66.5q81 0 134.5 44t66.5 126h20q-10 -88 -70 -139t-149 -51q-114 -1 -169.5 73t-55.5 196q0 123 66.5 196t158.5 73q77 0 130 -39.5t75.5 -100t19.5 -133.5z
M182 568h-20v81h20v-81zM338 568h-20v81h20v-81z" />
    <glyph glyph-name="igrave" unicode="&#xec;" horiz-adv-x="130" 
d="M75 0h-20v514h20v-514zM101 565l-139 144h29l125 -144h-15z" />
    <glyph glyph-name="iacute" unicode="&#xed;" horiz-adv-x="130" 
d="M75 0h-20v514h20v-514zM142 709h29l-146 -144h-15z" />
    <glyph glyph-name="icircumflex" unicode="&#xee;" horiz-adv-x="130" 
d="M75 0h-20v514h20v-514zM186 570h-20l-103 123l-99 -123h-20l113 139h15z" />
    <glyph glyph-name="idieresis" unicode="&#xef;" horiz-adv-x="130" 
d="M75 0h-20v514h20v-514zM-3 568h-20v81h20v-81zM153 568h-20v81h20v-81z" />
    <glyph glyph-name="eth" unicode="&#xf0;" horiz-adv-x="519" 
d="M128 581l121 67q-44 35 -93 60l16 14q52 -27 96 -64l123 68l15 -16l-120 -67q107 -99 156 -193t49 -202t-62 -183.5t-170 -75.5t-169.5 75.5t-61.5 183.5q0 107 62 183t170 76t162 -72h4q-27 55 -73 109.5t-88 89.5l-122 -68zM48 248q0 -100 56.5 -169.5t155.5 -69.5
q98 0 154.5 70t56.5 169q0 98 -56.5 168.5t-154.5 70.5q-99 0 -155.5 -70t-56.5 -169z" />
    <glyph glyph-name="ntilde" unicode="&#xf1;" 
d="M55 0v514h20v-127h2q15 62 63.5 100.5t121.5 38.5q82 0 132.5 -49t50.5 -136v-341h-20v338q0 84 -46 126t-117 42q-88 0 -137.5 -62t-49.5 -153v-291h-20zM138 580h-20q0 28 21 53.5t47 25.5q24 0 66 -29t61 -29q22 0 35.5 16.5t13.5 38.5h20q0 -31 -18 -53t-51 -22
q-26 0 -66 29t-61 29q-20 0 -34 -19.5t-14 -39.5z" />
    <glyph glyph-name="ograve" unicode="&#xf2;" horiz-adv-x="519" 
d="M28 257q0 112 62 190.5t170 78.5q107 0 169 -79t62 -190q0 -112 -62 -190.5t-170 -78.5t-169.5 78.5t-61.5 190.5zM48 257q0 -104 56.5 -176.5t155.5 -72.5q98 0 154.5 73t56.5 176q0 102 -56.5 175.5t-154.5 73.5q-99 0 -155.5 -73t-56.5 -176zM296 565l-139 144h29
l125 -144h-15z" />
    <glyph glyph-name="oacute" unicode="&#xf3;" horiz-adv-x="519" 
d="M28 257q0 112 62 190.5t170 78.5q107 0 169 -79t62 -190q0 -112 -62 -190.5t-170 -78.5t-169.5 78.5t-61.5 190.5zM48 257q0 -104 56.5 -176.5t155.5 -72.5q98 0 154.5 73t56.5 176q0 102 -56.5 175.5t-154.5 73.5q-99 0 -155.5 -73t-56.5 -176zM337 709h29l-146 -144
h-15z" />
    <glyph glyph-name="ocircumflex" unicode="&#xf4;" horiz-adv-x="519" 
d="M28 257q0 112 62 190.5t170 78.5q107 0 169 -79t62 -190q0 -112 -62 -190.5t-170 -78.5t-169.5 78.5t-61.5 190.5zM48 257q0 -104 56.5 -176.5t155.5 -72.5q98 0 154.5 73t56.5 176q0 102 -56.5 175.5t-154.5 73.5q-99 0 -155.5 -73t-56.5 -176zM381 570h-20l-103 123
l-99 -123h-20l113 139h15z" />
    <glyph glyph-name="otilde" unicode="&#xf5;" horiz-adv-x="519" 
d="M28 257q0 112 62 190.5t170 78.5q107 0 169 -79t62 -190q0 -112 -62 -190.5t-170 -78.5t-169.5 78.5t-61.5 190.5zM48 257q0 -104 56.5 -176.5t155.5 -72.5q98 0 154.5 73t56.5 176q0 102 -56.5 175.5t-154.5 73.5q-99 0 -155.5 -73t-56.5 -176zM148 580h-20
q0 28 21 53.5t47 25.5q24 0 66 -29t61 -29q22 0 35.5 16.5t13.5 38.5h20q0 -31 -18 -53t-51 -22q-26 0 -66 29t-61 29q-20 0 -34 -19.5t-14 -39.5z" />
    <glyph glyph-name="odieresis" unicode="&#xf6;" horiz-adv-x="519" 
d="M28 257q0 112 62 190.5t170 78.5q107 0 169 -79t62 -190q0 -112 -62 -190.5t-170 -78.5t-169.5 78.5t-61.5 190.5zM48 257q0 -104 56.5 -176.5t155.5 -72.5q98 0 154.5 73t56.5 176q0 102 -56.5 175.5t-154.5 73.5q-99 0 -155.5 -73t-56.5 -176zM192 568h-20v81h20v-81z
M348 568h-20v81h20v-81z" />
    <glyph glyph-name="divide" unicode="&#xf7;" horiz-adv-x="600" 
d="M552 243h-504v20h504v-20zM300 424q-41 0 -41 41q0 18 12 29.5t29 11.5t29 -12t12 -29q0 -41 -41 -41zM300 0q-41 0 -41 41q0 18 12 29.5t29 11.5t29 -12t12 -29q0 -41 -41 -41z" />
    <glyph glyph-name="oslash" unicode="&#xf8;" horiz-adv-x="519" 
d="M92 99l320 335q-56 72 -152 72q-99 0 -155.5 -73t-56.5 -176q0 -91 44 -158zM424 418l-320 -335q55 -75 156 -75q98 0 154.5 73t56.5 176q0 93 -47 161zM427 449l45 47l14 -14l-47 -49q52 -72 52 -176q0 -112 -62 -190.5t-170 -78.5q-106 0 -170 79l-57 -59l-14 14l60 62
q-50 71 -50 173q0 112 62 190.5t170 78.5q104 0 167 -77z" />
    <glyph glyph-name="ugrave" unicode="&#xf9;" 
d="M445 514v-514h-20v127h-2q-15 -62 -63.5 -100.5t-121.5 -38.5q-82 0 -132.5 49t-50.5 136v341h20v-338q0 -84 46 -126t117 -42q88 0 137.5 62t49.5 153v291h20zM286 565l-139 144h29l125 -144h-15z" />
    <glyph glyph-name="uacute" unicode="&#xfa;" 
d="M445 514v-514h-20v127h-2q-15 -62 -63.5 -100.5t-121.5 -38.5q-82 0 -132.5 49t-50.5 136v341h20v-338q0 -84 46 -126t117 -42q88 0 137.5 62t49.5 153v291h20zM327 709h29l-146 -144h-15z" />
    <glyph glyph-name="ucircumflex" unicode="&#xfb;" 
d="M445 514v-514h-20v127h-2q-15 -62 -63.5 -100.5t-121.5 -38.5q-82 0 -132.5 49t-50.5 136v341h20v-338q0 -84 46 -126t117 -42q88 0 137.5 62t49.5 153v291h20zM371 570h-20l-103 123l-99 -123h-20l113 139h15z" />
    <glyph glyph-name="udieresis" unicode="&#xfc;" 
d="M445 514v-514h-20v127h-2q-15 -62 -63.5 -100.5t-121.5 -38.5q-82 0 -132.5 49t-50.5 136v341h20v-338q0 -84 46 -126t117 -42q88 0 137.5 62t49.5 153v291h20zM182 568h-20v81h20v-81zM338 568h-20v81h20v-81z" />
    <glyph glyph-name="yacute" unicode="&#xfd;" horiz-adv-x="407" 
d="M214 27l184 487h21l-237 -619q-10 -25 -23 -40.5t-33 -22t-35.5 -8t-44.5 -1.5v20q55 -1 79 10.5t41 55.5l37 96l-215 509h22zM281 731h29l-146 -144h-15z" />
    <glyph glyph-name="thorn" unicode="&#xfe;" horiz-adv-x="537" 
d="M482 258q0 107 -49.5 177.5t-149.5 70.5t-154 -71t-54 -177q0 -117 57.5 -183.5t150.5 -66.5q72 0 118.5 39t63.5 92.5t17 118.5zM75 144v-321h-20v891h20v-344h2q21 71 73 113.5t133 42.5q105 0 162 -74t57 -194q0 -75 -22 -134t-73 -97.5t-124 -38.5q-78 0 -133 42.5
t-73 113.5h-2z" />
    <glyph glyph-name="ydieresis" unicode="&#xff;" horiz-adv-x="407" 
d="M214 27l184 487h21l-237 -619q-10 -25 -23 -40.5t-33 -22t-35.5 -8t-44.5 -1.5v20q55 -1 79 10.5t41 55.5l37 96l-215 509h22zM136 590h-20v81h20v-81zM292 590h-20v81h20v-81z" />
    <glyph glyph-name="dotlessi" unicode="&#x131;" horiz-adv-x="130" 
d="M75 0h-20v514h20v-514z" />
    <glyph glyph-name="Lslash" unicode="&#x141;" horiz-adv-x="481" 
d="M491 0h-437v269l-74 -52v24l74 52v421h20v-407l248 174v-24l-248 -174v-263h417v-20z" />
    <glyph glyph-name="lslash" unicode="&#x142;" horiz-adv-x="130" 
d="M55 714h20v-297l73 63v-25l-73 -63v-392h-20v375l-73 -63v25l73 63v314z" />
    <glyph glyph-name="OE" unicode="&#x152;" horiz-adv-x="1019" 
d="M578 382h366v-20h-366v-342h414v-20h-434v65q-79 -82 -196 -82q-155 0 -242.5 106.5t-87.5 263.5q0 103 36 187t112.5 137.5t181.5 53.5q124 0 196 -82v65h434v-20h-414v-312zM558 94v529q-47 48 -90 68t-106 20q-141 0 -224.5 -98t-85.5 -260q2 -155 85 -252.5
t225 -97.5q117 0 196 91z" />
    <glyph glyph-name="oe" unicode="&#x153;" horiz-adv-x="890" 
d="M454 273h382q-2 103 -48 168t-141 65q-184 0 -193 -233zM434 257q0 50 -10 93t-31.5 79t-59.5 56.5t-90 20.5q-97 0 -144 -71.5t-47 -177.5q0 -104 47 -176.5t144 -72.5q53 0 91 20t59.5 56t31 78.5t9.5 94.5zM856 253h-402q-2 -245 192 -245q153 0 183 165h20
q-14 -86 -66 -135.5t-137 -49.5t-137 44t-64 125h-2q-17 -80 -67 -124.5t-133 -44.5q-72 0 -121 40t-69.5 98.5t-20.5 130.5q0 52 11.5 98t35.5 85.5t66 62.5t98 23q82 0 135 -48t64 -128h2q14 80 63.5 127.5t138.5 48.5q104 1 157 -73t53 -185v-15z" />
    <glyph glyph-name="Scaron" unicode="&#x160;" horiz-adv-x="611" 
d="M551 514h-20q-7 197 -232 197q-41 0 -78 -8t-71 -25.5t-54.5 -51t-20.5 -79.5q0 -19 4 -35.5t9.5 -29t17 -24t20.5 -19.5t26.5 -16t28.5 -12.5t33.5 -10.5t34 -9t36.5 -8.5t36 -8.5q10 -2 28 -7q34 -9 50.5 -13.5t44.5 -13.5t41.5 -17.5t31.5 -23t26.5 -31.5t15 -40.5
t6.5 -52.5q0 -94 -75 -143t-177 -49q-129 0 -205 62.5t-74 191.5h20q0 -234 259 -234q94 0 163 43.5t69 129.5q0 26 -7 48t-16 37.5t-27.5 28.5t-33 21t-40 16t-40.5 12t-44 10.5t-42 9.5q-112 26 -149 44q-91 44 -91 144q0 51 21.5 88.5t58 57.5t77.5 29t87 9
q113 0 180 -51.5t72 -165.5zM185 931h20l103 -123l99 123h20l-113 -139h-15z" />
    <glyph glyph-name="scaron" unicode="&#x161;" horiz-adv-x="463" 
d="M410 362h-20q0 74 -44 109t-122 35q-50 0 -84 -13.5t-47.5 -35t-18 -35.5t-4.5 -25q0 -67 57 -90q17 -7 132 -38q28 -7 40.5 -10.5t36.5 -12t36 -17.5t26 -23t20 -32.5t6 -42.5q0 -49 -28.5 -82.5t-69 -47t-88.5 -13.5q-208 0 -208 188h20q0 -84 48.5 -126t139.5 -42
q40 0 76 11.5t63 40t27 69.5q0 13 -3 25t-6.5 21t-12.5 17.5t-14.5 14t-19.5 12t-20 9.5t-24 8t-24 7t-27 7t-26 6q-81 20 -115 35q-62 27 -62 106q0 50 43 89.5t131 39.5t137 -40.5t49 -123.5zM111 731h20l103 -123l99 123h20l-113 -139h-15z" />
    <glyph glyph-name="Ydieresis" unicode="&#x178;" horiz-adv-x="538" 
d="M269 322l275 392h24l-289 -413v-301h-20v301l-289 413h25zM201 768h-20v81h20v-81zM357 768h-20v81h20v-81z" />
    <glyph glyph-name="Zcaron" unicode="&#x17d;" 
d="M1 20h507v-20h-527v27l499 667h-471v20h491v-27zM129 931h20l103 -123l99 123h20l-113 -139h-15z" />
    <glyph glyph-name="zcaron" unicode="&#x17e;" horiz-adv-x="407" 
d="M26 20h376v-20h-397v25l360 469h-333v20h354v-25zM83 731h20l103 -123l99 123h20l-113 -139h-15z" />
    <glyph glyph-name="florin" unicode="&#x192;" horiz-adv-x="556" 
d="M281 411l-92 -466q-10 -53 -41 -87.5t-85 -34.5q-31 0 -50 6l5 20q21 -6 42 -6q87 0 108 106l91 462h-119l4 20h119l39 195q21 105 132 105q31 0 55 -7l-4 -19q-32 6 -53 6q-47 0 -73 -21.5t-37 -74.5l-37 -184h127l-4 -20h-127z" />
    <glyph glyph-name="circumflex" unicode="&#x2c6;" horiz-adv-x="130" 
d="M186 592h-20l-103 123l-99 -123h-20l113 139h15z" />
    <glyph glyph-name="caron" unicode="&#x2c7;" horiz-adv-x="130" 
d="M-56 731h20l103 -123l99 123h20l-113 -139h-15z" />
    <glyph glyph-name="breve" unicode="&#x2d8;" horiz-adv-x="130" 
d="M-58 731h20q5 -39 32.5 -63t67.5 -24q44 0 73 22t33 65h20q-6 -50 -40 -78.5t-86 -28.5q-48 0 -81 29.5t-39 77.5z" />
    <glyph glyph-name="dotaccent" unicode="&#x2d9;" horiz-adv-x="130" 
d="M55 671h20v-81h-20v81z" />
    <glyph glyph-name="ring" unicode="&#x2da;" horiz-adv-x="130" 
d="M153 674q0 -36 -26 -62t-62 -26q-35 0 -61.5 26t-26.5 62q0 35 26.5 61.5t61.5 26.5t61.5 -26.5t26.5 -61.5zM133 674q0 28 -20 48t-48 20t-48 -20t-20 -48t20 -48t48 -20t48 20t20 48z" />
    <glyph glyph-name="ogonek" unicode="&#x2db;" horiz-adv-x="130" 
d="M81 0h29q-57 -44 -81.5 -72.5t-24.5 -53.5q0 -17 14.5 -30t40.5 -13q50 0 77 31l17 -12q-35 -39 -94 -39q-35 0 -55 18.5t-20 43.5q0 54 97 127z" />
    <glyph glyph-name="tilde" unicode="&#x2dc;" horiz-adv-x="130" 
d="M-47 602h-20q0 28 21 53.5t47 25.5q24 0 66 -29t61 -29q22 0 35.5 16.5t13.5 38.5h20q0 -31 -18 -53t-51 -22q-26 0 -66 29t-61 29q-20 0 -34 -19.5t-14 -39.5z" />
    <glyph glyph-name="hungarumlaut" unicode="&#x2dd;" horiz-adv-x="130" 
d="M87 731h29l-146 -144h-15zM237 731h29l-146 -144h-15z" />
    <glyph glyph-name="endash" unicode="&#x2013;" 
d="M0 258v20h500v-20h-500z" />
    <glyph glyph-name="emdash" unicode="&#x2014;" horiz-adv-x="1000" 
d="M1000 278v-20h-1000v20h1000z" />
    <glyph glyph-name="quoteleft" unicode="&#x2018;" horiz-adv-x="167" 
d="M93 489h-20v118q0 52 9 72t36 35v-20q-25 -16 -25 -87v-118z" />
    <glyph glyph-name="quoteright" unicode="&#x2019;" horiz-adv-x="167" 
d="M74 714h20v-118q0 -52 -9 -72t-36 -35v20q25 16 25 87v118z" />
    <glyph glyph-name="quotesinglbase" unicode="&#x201a;" horiz-adv-x="167" 
d="M73 98h20v-98q0 -89 -45 -119v20q25 24 25 99v98z" />
    <glyph glyph-name="quotedblleft" unicode="&#x201c;" horiz-adv-x="278" 
d="M103 489h-20v118q0 52 9 72t36 35v-20q-25 -16 -25 -87v-118zM203 489h-20v118q0 52 9 72t36 35v-20q-25 -16 -25 -87v-118z" />
    <glyph glyph-name="quotedblright" unicode="&#x201d;" horiz-adv-x="278" 
d="M175 714h20v-118q0 -52 -9 -72t-36 -35v20q25 16 25 87v118zM75 714h20v-118q0 -52 -9 -72t-36 -35v20q25 16 25 87v118z" />
    <glyph glyph-name="quotedblbase" unicode="&#x201e;" horiz-adv-x="278" 
d="M175 98h20v-98q0 -89 -45 -119v20q25 24 25 99v98zM75 98h20v-98q0 -89 -45 -119v20q25 24 25 99v98z" />
    <glyph glyph-name="dagger" unicode="&#x2020;" horiz-adv-x="556" 
d="M268 714h20v-243h208v-20h-208v-591h-20v591h-208v20h208v243z" />
    <glyph glyph-name="daggerdbl" unicode="&#x2021;" horiz-adv-x="556" 
d="M268 57h-208v20h208v420h-208v20h208v197h20v-197h208v-20h-208v-420h208v-20h-208v-197h-20v197z" />
    <glyph glyph-name="bullet" unicode="&#x2022;" 
d="M72 357q0 74 52 126t126 52t126.5 -52t52.5 -126t-52.5 -126.5t-126.5 -52.5t-126 52.5t-52 126.5z" />
    <glyph glyph-name="ellipsis" unicode="&#x2026;" horiz-adv-x="1000" 
d="M177 98v-98h-20v98h20zM510 98v-98h-20v98h20zM843 98v-98h-20v98h20z" />
    <glyph glyph-name="perthousand" unicode="&#x2030;" horiz-adv-x="1037" 
d="M21 519q0 77 40.5 125t111.5 48q74 0 114.5 -47.5t40.5 -124.5q0 -72 -41.5 -121t-113.5 -49q-74 0 -113 49t-39 120zM41 519q0 -64 34 -106.5t98 -42.5t99.5 43t35.5 106q0 71 -34 112t-101 41q-66 0 -99 -41.5t-33 -111.5zM349 157q0 77 40.5 125t111.5 48
q74 0 114.5 -47.5t40.5 -124.5q0 -72 -41.5 -121t-113.5 -49q-74 0 -113 49t-39 120zM369 157q0 -64 34 -106.5t98 -42.5t99.5 43t35.5 106q0 71 -34 112t-101 41q-66 0 -99 -41.5t-33 -111.5zM709 157q0 77 40.5 125t111.5 48q74 0 114.5 -47.5t40.5 -124.5
q0 -72 -41.5 -121t-113.5 -49q-74 0 -113 49t-39 120zM729 157q0 -64 34 -106.5t98 -42.5t99.5 43t35.5 106q0 71 -34 112t-101 41q-66 0 -99 -41.5t-33 -111.5zM89 -34l476 748h23l-476 -748h-23z" />
    <glyph glyph-name="guilsinglleft" unicode="&#x2039;" horiz-adv-x="259" 
d="M169 156v-35l-103 139v16l103 139v-35l-83 -112z" />
    <glyph glyph-name="guilsinglright" unicode="&#x203a;" horiz-adv-x="259" 
d="M90 380v35l103 -139v-16l-103 -139v35l83 112z" />
    <glyph glyph-name="fraction" unicode="&#x2044;" horiz-adv-x="167" 
d="M-166 -34l476 748h23l-476 -748h-23z" />
    <glyph glyph-name="trademark" unicode="&#x2122;" horiz-adv-x="990" 
d="M232 302v392h-150v20h320v-20h-150v-392h-20zM496 302v412h34l162 -384l162 384h34v-412h-20v392h-2l-164 -392h-20l-164 392h-2v-392h-20z" />
    <glyph glyph-name="minus" unicode="&#x2212;" horiz-adv-x="600" 
d="M552 243h-504v20h504v-20z" />
    <glyph glyph-name="fi" unicode="&#xfb01;" horiz-adv-x="333" 
d="M278 514v-514h-20v514h20zM278 714v-101h-20v101h20zM87 494h-88v20h88v114q0 29 9 47.5t26 26.5t31 10t35 2q8 0 16 -0.5t16 -2t11 -1.5v-20q-25 4 -47 4q-46 0 -61.5 -16.5t-15.5 -56.5v-107h111v-20h-111v-494h-20v494z" />
    <glyph glyph-name="fl" unicode="&#xfb02;" horiz-adv-x="333" 
d="M87 494h-88v20h88v114q0 29 9 47.5t26 26.5t31 10t35 2q8 0 16 -0.5t16 -2t11 -1.5v-20q-25 4 -47 4q-46 0 -61.5 -16.5t-15.5 -56.5v-107h111v-20h-111v-494h-20v494zM278 714v-714h-20v714h20z" />
    <hkern u1="A" u2="&#x2019;" k="55" />
    <hkern u1="A" u2="y" k="38" />
    <hkern u1="A" u2="w" k="18" />
    <hkern u1="A" u2="v" k="38" />
    <hkern u1="A" u2="Y" k="37" />
    <hkern u1="A" u2="W" k="20" />
    <hkern u1="A" u2="V" k="55" />
    <hkern u1="A" u2="T" k="74" />
    <hkern u1="F" u2="A" k="37" />
    <hkern u1="F" u2="&#x2e;" k="92" />
    <hkern u1="F" u2="&#x2c;" k="92" />
    <hkern u1="L" u2="&#x2019;" k="75" />
    <hkern u1="L" u2="y" k="55" />
    <hkern u1="L" u2="Y" k="111" />
    <hkern u1="L" u2="W" k="74" />
    <hkern u1="L" u2="V" k="92" />
    <hkern u1="L" u2="T" k="92" />
    <hkern u1="P" u2="A" k="55" />
    <hkern u1="P" u2="&#x2e;" k="100" />
    <hkern u1="P" u2="&#x2c;" k="100" />
    <hkern u1="T" u2="y" k="92" />
    <hkern u1="T" u2="w" k="92" />
    <hkern u1="T" u2="u" k="92" />
    <hkern u1="T" u2="s" k="92" />
    <hkern u1="T" u2="r" k="92" />
    <hkern u1="T" u2="o" k="92" />
    <hkern u1="T" u2="i" k="25" />
    <hkern u1="T" u2="e" k="92" />
    <hkern u1="T" u2="c" k="92" />
    <hkern u1="T" u2="a" k="92" />
    <hkern u1="T" u2="A" k="74" />
    <hkern u1="T" u2="&#x3b;" k="111" />
    <hkern u1="T" u2="&#x3a;" k="111" />
    <hkern u1="T" u2="&#x2e;" k="111" />
    <hkern u1="T" u2="&#x2d;" k="111" />
    <hkern u1="T" u2="&#x2c;" k="111" />
    <hkern u1="V" u2="u" k="18" />
    <hkern u1="V" u2="r" k="18" />
    <hkern u1="V" u2="o" k="37" />
    <hkern u1="V" u2="e" k="37" />
    <hkern u1="V" u2="a" k="37" />
    <hkern u1="V" u2="A" k="55" />
    <hkern u1="V" u2="&#x3b;" k="37" />
    <hkern u1="V" u2="&#x3a;" k="37" />
    <hkern u1="V" u2="&#x2e;" k="92" />
    <hkern u1="V" u2="&#x2d;" k="37" />
    <hkern u1="V" u2="&#x2c;" k="92" />
    <hkern u1="W" u2="o" k="18" />
    <hkern u1="W" u2="e" k="18" />
    <hkern u1="W" u2="a" k="18" />
    <hkern u1="W" u2="A" k="20" />
    <hkern u1="W" u2="&#x3b;" k="18" />
    <hkern u1="W" u2="&#x3a;" k="18" />
    <hkern u1="W" u2="&#x2e;" k="55" />
    <hkern u1="W" u2="&#x2d;" k="37" />
    <hkern u1="W" u2="&#x2c;" k="55" />
    <hkern u1="Y" u2="v" k="18" />
    <hkern u1="Y" u2="u" k="37" />
    <hkern u1="Y" u2="q" k="74" />
    <hkern u1="Y" u2="p" k="55" />
    <hkern u1="Y" u2="o" k="74" />
    <hkern u1="Y" u2="e" k="74" />
    <hkern u1="Y" u2="a" k="74" />
    <hkern u1="Y" u2="A" k="55" />
    <hkern u1="Y" u2="&#x3b;" k="55" />
    <hkern u1="Y" u2="&#x3a;" k="55" />
    <hkern u1="Y" u2="&#x2e;" k="92" />
    <hkern u1="Y" u2="&#x2d;" k="100" />
    <hkern u1="Y" u2="&#x2c;" k="92" />
    <hkern u1="f" u2="&#x2019;" k="-18" />
    <hkern u1="r" u2="&#x2019;" k="-18" />
    <hkern u1="r" u2="y" k="-18" />
    <hkern u1="r" u2="v" k="-18" />
    <hkern u1="r" u2="&#x2e;" k="55" />
    <hkern u1="r" u2="&#x2d;" k="55" />
    <hkern u1="r" u2="&#x2c;" k="55" />
    <hkern u1="v" u2="&#x2e;" k="74" />
    <hkern u1="v" u2="&#x2c;" k="74" />
    <hkern u1="w" u2="&#x2e;" k="55" />
    <hkern u1="w" u2="&#x2c;" k="55" />
    <hkern u1="y" u2="&#x2e;" k="74" />
    <hkern u1="y" u2="&#x2c;" k="74" />
    <hkern u1="&#x2018;" u2="&#x2018;" k="67" />
    <hkern u1="&#x2019;" u2="&#x2019;" k="67" />
    <hkern u1="&#x2019;" u2="s" k="55" />
  </font>
</defs></svg>
