<?xml version="1.0" encoding="UTF-8" standalone="no"?>
<svg width="31px" height="32px" viewBox="0 0 31 32" version="1.1" xmlns="http://www.w3.org/2000/svg" xmlns:xlink="http://www.w3.org/1999/xlink" xmlns:sketch="http://www.bohemiancoding.com/sketch/ns">
    <!-- Generator: Sketch 3.4 (15575) - http://www.bohemiancoding.com/sketch -->
    <title>Group</title>
    <desc>Created with Sketch.</desc>
    <defs></defs>
    <g id="Page-1" stroke="none" stroke-width="1" fill="none" fill-rule="evenodd" sketch:type="MSPage">
        <g id="Systems-Dashboard-A-1" sketch:type="MSArtboardGroup" transform="translate(-484.000000, -566.000000)" fill="#000000">
            <g id="Group" sketch:type="MSLayerGroup" transform="translate(372.000000, 515.000000)">
                <g transform="translate(112.000000, 51.000000)" id="Shape" sketch:type="MSShapeGroup">
                    <g>
                        <path d="M9.30054386,31.7771034 L9.3,31.7771034 C8.62452632,31.7771034 7.94524561,31.6347586 7.28119298,31.3533793 C7.11368421,31.2827586 6.99185965,31.1321379 6.95650877,30.9511724 C6.92170175,30.7707586 6.97717544,30.5842759 7.10552632,30.454069 L9.45173684,28.0744828 L7.91315789,26.5142069 L5.60610526,28.8546207 C5.47775439,28.9848276 5.29338596,29.0416552 5.11554386,29.0057931 C4.93770175,28.969931 4.78922807,28.8468966 4.71961404,28.6769655 C3.92340351,26.7387586 4.25461404,24.7635862 5.60610526,23.3931034 C6.53012281,22.4551724 7.75978947,21.9387586 9.06668421,21.9387586 C10.3741228,21.9387586 11.6037895,22.4551724 12.527807,23.3931034 C13.4523684,24.3304828 13.9619649,25.577931 13.9619649,26.9042759 C13.9619649,28.2306207 13.4523684,29.4775172 12.527807,30.4154483 C11.6500175,31.305931 10.5334737,31.7771034 9.30054386,31.7771034 L9.30054386,31.7771034 L9.30054386,31.7771034 Z M8.50922807,30.5908966 C8.77354386,30.6455172 9.03785965,30.6736552 9.3,30.6736552 L9.30054386,30.6736552 C10.2387018,30.6736552 11.0892982,30.3144828 11.7587895,29.6353103 C12.4777719,28.9053793 12.8742456,27.9354483 12.8742456,26.9042759 C12.8742456,25.8725517 12.4777719,24.9026207 11.7587895,24.1732414 C11.039807,23.4438621 10.0837018,23.0422069 9.06668421,23.0422069 C8.05021053,23.0422069 7.09410526,23.4438621 6.37512281,24.1732414 C5.518,25.0422069 5.20419298,26.1997241 5.46796491,27.433931 L7.52864912,25.3434483 C7.74075439,25.1282759 8.08501754,25.1282759 8.29766667,25.3434483 L10.6052632,27.6844138 C10.7075088,27.7875862 10.764614,27.9282759 10.764614,28.0744828 C10.764614,28.2206897 10.7075088,28.3608276 10.6052632,28.4645517 L8.50922807,30.5908966 L8.50922807,30.5908966 L8.50922807,30.5908966 Z"></path>
                        <path d="M26.0062807,14.7238621 C24.699386,14.7238621 23.4642807,14.2002759 22.5272105,13.2496552 C21.6015614,12.3106207 21.0854386,11.072 21.0740175,9.76275862 C21.0631404,8.44468966 21.5645789,7.20331034 22.4885965,6.26648276 C23.8346491,4.90041379 25.8012456,4.56551724 27.6971404,5.36717241 C27.8641053,5.4377931 27.9859298,5.58841379 28.0212807,5.76937931 C28.0566316,5.9497931 28.000614,6.13627586 27.8722632,6.26648276 L25.6032807,8.56827586 L27.1413158,10.1285517 L29.4489123,7.78758621 C29.577807,7.65793103 29.7621754,7.60055172 29.9394737,7.63696552 C30.1173158,7.67227586 30.2657895,7.79586207 30.3354035,7.9657931 C31.131614,9.90344828 30.7857193,11.8935172 29.4102982,13.2888276 C28.4982456,14.214069 27.2892456,14.7238621 26.0062807,14.7238621 L26.0062807,14.7238621 L26.0062807,14.7238621 Z M25.6435263,6.03475862 C24.7352807,6.03475862 23.9102456,6.38455172 23.257614,7.04662069 C22.5418947,7.77213793 22.1524912,8.7337931 22.1617368,9.75282759 C22.1704386,10.7713103 22.5734386,11.7362759 23.2962281,12.4695172 C24.0277193,13.2115862 24.9903509,13.6204138 26.0062807,13.6204138 C26.9988246,13.6204138 27.9342632,13.2253793 28.6412807,12.5081379 C29.5032982,11.6342069 29.8328772,10.4441379 29.5827018,9.21213793 L27.5258246,11.2987586 C27.4241228,11.4024828 27.2859825,11.4604138 27.1413158,11.4604138 C26.997193,11.4604138 26.8590526,11.4024828 26.756807,11.2987586 L24.4497544,8.95834483 C24.2371053,8.74262069 24.2371053,8.39337931 24.4497544,8.17765517 L26.4718246,6.12634483 C26.1933684,6.06565517 25.9165439,6.03475862 25.6435263,6.03475862 L25.6435263,6.03475862 L25.6435263,6.03475862 Z"></path>
                        <path d="M4.45257895,17.136 C4.19533333,17.136 3.95331579,17.0344828 3.77166667,16.8502069 L0.518298246,13.5503448 C0.143035088,13.1696552 0.143035088,12.5495172 0.517754386,12.1688276 L1.84803509,10.8193103 C2.21133333,10.4507586 2.8465614,10.4502069 3.20985965,10.8193103 L3.50680702,11.1205517 C3.5704386,11.1845517 3.64440351,11.1944828 3.68247368,11.1944828 C3.72163158,11.1944828 3.79559649,11.1845517 3.85922807,11.1205517 L5.30970175,9.64910345 C5.11880702,9.09958621 5.19005263,8.20965517 6.42570175,6.95613793 L9.88736842,3.44496552 C9.94936842,3.36606897 12.2341228,0.687448276 18.2236491,0.554482759 L18.6576491,0.545103448 L18.8947719,1.41241379 L18.5091754,1.64027586 C16.4077018,2.75806897 12.903614,5.22648276 13.0803684,7.39972414 C13.109193,7.75724138 12.9917193,8.09765517 12.7584035,8.33434483 L10.2898246,10.8391724 C10.1163333,11.0488276 9.17708772,12.1268966 8.16224561,12.1268966 C7.96536842,12.1268966 7.77664912,12.0871724 7.60098246,12.0093793 C7.6004386,12.0088276 7.59989474,12.0088276 7.59935088,12.0082759 L6.16682456,13.4609655 C6.06947368,13.5597241 6.06947368,13.7197241 6.16682456,13.8184828 L6.46322807,14.1191724 C6.83849123,14.5004138 6.83794737,15.12 6.46377193,15.5006897 L5.13294737,16.8502069 C4.95129825,17.0344828 4.70982456,17.136 4.45257895,17.136 L4.45257895,17.136 L4.45257895,17.136 Z M1.37542105,12.8595862 L4.45257895,15.9806897 L5.60610526,14.809931 L5.39780702,14.5986207 C4.87678947,14.070069 4.87678947,13.2093793 5.39780702,12.6808276 L6.86296491,11.1944828 C7.1555614,10.896 7.62817544,10.8182069 8.03607018,10.998069 C8.3955614,11.1569655 9.12542105,10.5384828 9.46642105,10.1175172 L11.989386,7.5542069 C11.9910175,7.55144828 11.9986316,7.52993103 11.9959123,7.4902069 C11.8115439,5.21931034 14.2067018,3.1177931 16.0705088,1.84 C12.2308596,2.42372414 10.7037018,4.17158621 10.6857544,4.192 L7.1947193,7.73627586 C6.40938596,8.53296552 6.24568421,9.07917241 6.34412281,9.30427586 C6.50075439,9.66455172 6.43059649,10.0722759 6.16464912,10.342069 L4.62824561,11.9006897 C4.12354386,12.4126897 3.24249123,12.4132414 2.73778947,11.9006897 L2.52894737,11.6888276 L1.37542105,12.8595862 L1.37542105,12.8595862 L1.37542105,12.8595862 Z"></path>
                        <path d="M28.2399123,29.8344828 C27.6585263,29.8344828 27.1124912,29.6049655 26.7018772,29.1884138 L8.6827193,10.9086897 L11.7587895,7.78758621 L29.7779474,26.0673103 C30.1891053,26.4838621 30.4153509,27.0383448 30.4153509,27.6275862 C30.4153509,28.2173793 30.1891053,28.7713103 29.7779474,29.1884138 C29.3667895,29.6049655 28.8207544,29.8344828 28.2399123,29.8344828 L28.2399123,29.8344828 L28.2399123,29.8344828 Z M10.2207544,10.9086897 L27.4708947,28.4082759 C27.8820526,28.8248276 28.5977719,28.8248276 29.0089298,28.4082759 C29.2145088,28.1997241 29.3276316,27.9227586 29.3276316,27.6275862 C29.3276316,27.3329655 29.2145088,27.056 29.0089298,26.8474483 L11.7587895,9.34841379 L10.2207544,10.9086897 L10.2207544,10.9086897 L10.2207544,10.9086897 Z"></path>
                        <path d="M20.6041228,18.0926897 L20.6041228,18.0926897 C20.4594561,18.0926897 20.3213158,18.0347586 20.219614,17.9310345 L17.9120175,15.590069 C17.6999123,15.3748966 17.6999123,15.0256552 17.9120175,14.809931 L21.3731404,11.2987586 C21.5857895,11.0835862 21.9295088,11.0835862 22.1421579,11.2987586 L24.4497544,13.6397241 C24.552,13.7428966 24.6091053,13.8835862 24.6091053,14.0297931 C24.6091053,14.1765517 24.552,14.3166897 24.4497544,14.4198621 L20.9886316,17.9310345 C20.886386,18.0347586 20.7482456,18.0926897 20.6041228,18.0926897 L20.6041228,18.0926897 L20.6041228,18.0926897 Z M19.0660877,15.2 L20.6041228,16.7608276 L23.2962281,14.0297931 L21.7576491,12.4695172 L19.0660877,15.2 L19.0660877,15.2 L19.0660877,15.2 Z"></path>
                        <path d="M13.2973684,25.5051034 C13.1581404,25.5051034 13.0189123,25.4510345 12.9128596,25.3434483 L10.6052632,23.0030345 C10.5030175,22.8993103 10.4459123,22.7591724 10.4459123,22.6124138 C10.4459123,22.4662069 10.5030175,22.326069 10.6052632,22.2223448 L15.6044211,17.1508966 C15.8170702,16.9351724 16.1613333,16.9351724 16.3734386,17.1508966 L18.6815789,19.4913103 C18.7832807,19.5950345 18.8409298,19.7351724 18.8409298,19.881931 C18.8409298,20.0281379 18.7832807,20.1682759 18.6815789,20.272 L13.6818772,25.3434483 C13.5758246,25.4510345 13.4365965,25.5051034 13.2973684,25.5051034 L13.2973684,25.5051034 L13.2973684,25.5051034 Z M11.7587895,22.6124138 L13.2973684,24.1732414 L17.5280526,19.881931 L15.9889298,18.3211034 L11.7587895,22.6124138 L11.7587895,22.6124138 L11.7587895,22.6124138 Z"></path>
                    </g>
                </g>
            </g>
        </g>
    </g>
</svg>